date Wed Nov 13 12:14:00.868 pm 2019
base hex  timestamps absolute
internal events logged
// version 9.0.0
Begin Triggerblock Wed Nov 13 12:14:00.868 pm 2019
   0.000000 Start of measurement
   0.001777 1  707             Rx   d 1 7F  Length = 215812 BitCount = 58 ID = 1799
   0.002413 1  87              Rx   d 8 00 00 00 01 00 20 00 00  Length = 475789 BitCount = 123 ID = 135
   0.003417 1  87              Rx   d 8 00 00 00 01 00 00 00 00  Length = 479789 BitCount = 124 ID = 135
   0.020919 CAN 1 Status:chip status error active
   0.136221 1  707             Rx   d 1 7F  Length = 215797 BitCount = 58 ID = 1799
   2.137264 1  707             Rx   d 1 7F  Length = 215797 BitCount = 58 ID = 1799
   2.657400 1  0               Tx   d 2 81 07  Length = 264000 BitCount = 69 ID = 0
  11.857888 1  707             Rx   d 1 00  Length = 223797 BitCount = 60 ID = 1799
  12.358139 1  707             Rx   d 1 7F  Length = 215797 BitCount = 58 ID = 1799
  13.366691 1  607             Tx   d 8 2F 00 63 01 02 00 00 00  Length = 472000 BitCount = 121 ID = 1543
  13.368911 1  587             Rx   d 8 80 00 63 01 11 00 09 06  Length = 455804 BitCount = 118 ID = 1415
  13.369919 1  87              Rx   d 8 00 82 00 27 11 00 09 06  Length = 463789 BitCount = 120 ID = 135
  13.974655 1  607             Tx   d 8 40 00 63 6A 00 00 00 00  Length = 476000 BitCount = 122 ID = 1543
  13.976223 1  587             Rx   d 8 80 00 63 6A 11 00 09 06  Length = 451804 BitCount = 117 ID = 1415
  13.977235 1  87              Rx   d 8 00 82 00 27 11 00 09 06  Length = 463789 BitCount = 120 ID = 135
  13.981727 1  607             Tx   d 8 2F 00 63 02 00 00 00 00  Length = 472000 BitCount = 121 ID = 1543
  13.983234 1  587             Rx   d 8 80 00 63 02 11 00 09 06  Length = 459789 BitCount = 119 ID = 1415
  13.984238 1  87              Rx   d 8 00 82 00 27 11 00 09 06  Length = 463804 BitCount = 120 ID = 135
  14.359184 1  707             Rx   d 1 7F  Length = 215797 BitCount = 58 ID = 1799
  14.589152 1  607             Tx   d 8 40 00 63 19 00 00 00 00  Length = 472000 BitCount = 121 ID = 1543
  14.591544 1  587             Rx   d 8 80 00 63 19 11 00 09 06  Length = 451804 BitCount = 117 ID = 1415
  14.592556 1  87              Rx   d 8 00 82 00 27 11 00 09 06  Length = 463789 BitCount = 120 ID = 135
  14.596700 1  607             Tx   d 8 2F 00 63 08 01 00 00 00  Length = 468000 BitCount = 120 ID = 1543
  14.598551 1  587             Rx   d 8 80 00 63 08 11 00 09 06  Length = 455789 BitCount = 118 ID = 1415
  14.599559 1  87              Rx   d 8 00 82 00 27 11 00 09 06  Length = 463804 BitCount = 120 ID = 135
  15.203667 1  607             Tx   d 8 40 00 63 B6 00 00 00 00  Length = 472015 BitCount = 121 ID = 1543
  15.205863 1  587             Rx   d 8 80 00 63 B6 11 00 09 06  Length = 451789 BitCount = 117 ID = 1415
  15.206879 1  87              Rx   d 8 00 82 00 27 11 00 09 06  Length = 463804 BitCount = 120 ID = 135
  15.211658 1  607             Tx   d 8 2F 00 63 31 01 00 00 00  Length = 472015 BitCount = 121 ID = 1543
  15.213870 1  587             Rx   d 8 80 00 63 31 11 00 09 06  Length = 451789 BitCount = 117 ID = 1415
  15.214882 1  87              Rx   d 8 00 82 00 27 11 00 09 06  Length = 463804 BitCount = 120 ID = 135
  15.819614 1  607             Tx   d 8 40 00 63 46 00 00 00 00  Length = 472015 BitCount = 121 ID = 1543
  15.821186 1  587             Rx   d 8 80 00 63 46 11 00 09 06  Length = 451789 BitCount = 117 ID = 1415
  15.822198 1  87              Rx   d 8 00 82 00 27 11 00 09 06  Length = 463804 BitCount = 120 ID = 135
  15.826590 1  607             Tx   d 8 2F 00 63 70 00 00 00 00  Length = 472015 BitCount = 121 ID = 1543
  15.828194 1  587             Rx   d 8 80 00 63 70 11 00 09 06  Length = 455789 BitCount = 118 ID = 1415
  15.829202 1  87              Rx   d 8 00 82 00 27 11 00 09 06  Length = 463789 BitCount = 120 ID = 135
  16.360229 1  707             Rx   d 1 7F  Length = 215797 BitCount = 58 ID = 1799
  16.433813 1  607             Tx   d 8 40 00 63 84 00 00 00 00  Length = 472000 BitCount = 121 ID = 1543
  16.435509 1  587             Rx   d 8 80 00 63 84 11 00 09 06  Length = 455789 BitCount = 118 ID = 1415
  16.436520 1  87              Rx   d 8 00 82 00 27 11 00 09 06  Length = 463789 BitCount = 120 ID = 135
  16.440544 1  607             Tx   d 8 2F 00 63 A1 02 00 00 00  Length = 468015 BitCount = 120 ID = 1543
  16.442508 1  587             Rx   d 8 80 00 63 A1 11 00 09 06  Length = 451789 BitCount = 117 ID = 1415
  16.443524 1  87              Rx   d 8 00 82 00 27 11 00 09 06  Length = 463789 BitCount = 120 ID = 135
  17.047732 1  607             Tx   d 8 40 00 63 7C 00 00 00 00  Length = 480000 BitCount = 123 ID = 1543
  17.049836 1  587             Rx   d 8 80 00 63 7C 11 00 09 06  Length = 459789 BitCount = 119 ID = 1415
  17.050840 1  87              Rx   d 8 00 82 00 27 11 00 09 06  Length = 463789 BitCount = 120 ID = 135
  17.055724 1  607             Tx   d 8 2F 00 63 BC 03 00 00 00  Length = 468000 BitCount = 120 ID = 1543
  17.057835 1  587             Rx   d 8 80 00 63 BC 11 00 09 06  Length = 455789 BitCount = 118 ID = 1415
  17.058843 1  87              Rx   d 8 00 82 00 27 11 00 09 06  Length = 463789 BitCount = 120 ID = 135
  17.663719 1  607             Tx   d 8 40 00 63 A4 00 00 00 00  Length = 476000 BitCount = 122 ID = 1543
  17.665151 1  587             Rx   d 8 80 00 63 A4 11 00 09 06  Length = 455789 BitCount = 118 ID = 1415
  17.666159 1  87              Rx   d 8 00 82 00 27 11 00 09 06  Length = 463789 BitCount = 120 ID = 135
  17.670707 1  607             Tx   d 8 2F 00 63 FE FE 00 00 00  Length = 472000 BitCount = 121 ID = 1543
  17.672159 1  587             Rx   d 8 80 00 63 FE 11 00 09 06  Length = 459789 BitCount = 119 ID = 1415
  17.673163 1  87              Rx   d 8 00 82 00 27 11 00 09 06  Length = 463789 BitCount = 120 ID = 135
  18.277583 1  607             Tx   d 8 40 00 63 DD 00 00 00 00  Length = 472000 BitCount = 121 ID = 1543
  18.279466 1  587             Rx   d 8 80 00 63 DD 11 00 09 06  Length = 451789 BitCount = 117 ID = 1415
  18.280482 1  87              Rx   d 8 00 82 00 27 11 00 09 06  Length = 463789 BitCount = 120 ID = 135
  18.284538 1  607             Tx   d 8 2F 00 63 FF FF 00 00 00  Length = 476000 BitCount = 122 ID = 1543
  18.286482 1  587             Rx   d 8 80 00 63 FF 11 00 09 06  Length = 463804 BitCount = 120 ID = 1415
  18.287486 1  87              Rx   d 8 00 82 00 27 11 00 09 06  Length = 463789 BitCount = 120 ID = 135
  18.361271 1  707             Rx   d 1 7F  Length = 215812 BitCount = 58 ID = 1799
  18.891571 1  607             Tx   d 8 40 00 63 39 00 00 00 00  Length = 476015 BitCount = 122 ID = 1543
  18.893791 1  587             Rx   d 8 80 00 63 39 11 00 09 06  Length = 455804 BitCount = 118 ID = 1415
  18.894803 1  87              Rx   d 8 00 82 00 27 11 00 09 06  Length = 463789 BitCount = 120 ID = 135
  20.362319 1  707             Rx   d 1 7F  Length = 215797 BitCount = 58 ID = 1799
  22.363361 1  707             Rx   d 1 7F  Length = 215797 BitCount = 58 ID = 1799
End TriggerBlock
