date Tue Jun 21 12:25:16.429 pm 2016
base hex  timestamps absolute
internal events logged
// version 8.5.0
Begin Triggerblock Tue Jun 21 12:25:16.429 pm 2016
   0.000000 Start of measurement
   0.032502 CAN 1 Status:chip status error active
   4.696356 1  707             Rx   d 1 7F  Length = 215785 BitCount = 58 ID = 1799
   4.797028 1  87              Rx   d 8 00 00 00 01 00 20 00 00  Length = 475773 BitCount = 123 ID = 135
   4.798020 1  87              Rx   d 8 40 81 10 12 00 02 03 00  Length = 467773 BitCount = 121 ID = 135
   4.799036 1  87              Rx   d 8 00 00 00 12 00 00 00 00  Length = 483773 BitCount = 125 ID = 135
   4.800028 1  87              Rx   d 8 00 00 00 06 00 00 00 00  Length = 475773 BitCount = 123 ID = 135
   4.801032 1  87              Rx   d 8 00 00 00 01 00 00 00 00  Length = 479773 BitCount = 124 ID = 135
   5.845049 1  707             Rx   d 1 7F  Length = 215785 BitCount = 58 ID = 1799
   7.845597 1  707             Rx   d 1 7F  Length = 215785 BitCount = 58 ID = 1799
   9.846142 1  707             Rx   d 1 7F  Length = 215785 BitCount = 58 ID = 1799
  14.227030 1  707             Rx   d 1 7F  Length = 215785 BitCount = 58 ID = 1799
  14.327626 1  87              Rx   d 8 20 81 00 06 00 02 00 00  Length = 475773 BitCount = 123 ID = 135
  14.328618 1  87              Rx   d 8 40 81 10 12 00 02 03 00  Length = 467773 BitCount = 121 ID = 135
  14.329366 1  707             Rx   d 1 7F  Length = 215785 BitCount = 58 ID = 1799
  14.330638 1  87              Rx   d 8 00 00 00 12 00 00 00 00  Length = 483773 BitCount = 125 ID = 135
  14.331630 1  87              Rx   d 8 00 00 00 06 00 00 00 00  Length = 475773 BitCount = 123 ID = 135
  15.847781 1  707             Rx   d 1 7F  Length = 215785 BitCount = 58 ID = 1799
  17.848326 1  707             Rx   d 1 7F  Length = 215785 BitCount = 58 ID = 1799
  18.797836 1  87              Rx   d 8 00 53 20 22 00 02 00 88  Length = 463773 BitCount = 120 ID = 135
End TriggerBlock
