date Wed Nov 13 10:03:47.422 am 2019
base hex  timestamps absolute
internal events logged
// version 9.0.0
Begin Triggerblock Wed Nov 13 10:03:47.422 am 2019
   0.000000 Start of measurement
   0.001991 1  707             Rx   d 1 05  Length = 215797 BitCount = 58 ID = 1799
   0.002642 1  87              Rx   d 8 00 00 00 01 00 20 00 00  Length = 475789 BitCount = 123 ID = 135
   0.003646 1  87              Rx   d 8 00 00 00 01 00 00 00 00  Length = 479789 BitCount = 124 ID = 135
   0.051058 CAN 1 Status:chip status error active
   1.522176 1  707             Rx   d 1 05  Length = 215797 BitCount = 58 ID = 1799
   2.777784 1  0               Tx   d 2 81 07  Length = 264015 BitCount = 69 ID = 0
  14.279782 1  707             Rx   d 1 00  Length = 223797 BitCount = 60 ID = 1799
  14.780038 1  707             Rx   d 1 7F  Length = 215797 BitCount = 58 ID = 1799
  14.783302 1  0               Tx   d 2 01 07  Length = 260000 BitCount = 68 ID = 0
  14.785273 1  187             Rx   d 8 82 00 8E 06 3C 0A 8E 06  Length = 447789 BitCount = 116 ID = 391
  14.786037 1  287             Rx   d 1 01  Length = 211797 BitCount = 57 ID = 647
  14.787181 1  387             Rx   d 5 D0 07 00 00 00  Length = 355793 BitCount = 93 ID = 903
  14.788041 1  487             Rx   d 1 00  Length = 215797 BitCount = 58 ID = 1159
  14.789037 1  197             Rx   d 1 00  Length = 211812 BitCount = 57 ID = 407
  16.781083 1  707             Rx   d 1 05  Length = 215797 BitCount = 58 ID = 1799
  16.785319 1  307             Tx   d 1 01  Length = 224000 BitCount = 59 ID = 775
  16.788082 1  287             Rx   d 1 01  Length = 211797 BitCount = 57 ID = 647
  17.795386 1  307             Tx   d 1 00  Length = 224000 BitCount = 59 ID = 775
  17.796610 1  287             Rx   d 1 01  Length = 211797 BitCount = 57 ID = 647
  17.797870 1  87              Rx   d 8 20 A0 00 00 10 00 00 00  Length = 471789 BitCount = 122 ID = 135
  17.801366 1  307             Tx   d 1 01  Length = 224015 BitCount = 59 ID = 775
  17.803613 1  287             Rx   d 1 01  Length = 211812 BitCount = 57 ID = 647
  17.806305 1  307             Tx   d 1 02  Length = 220015 BitCount = 58 ID = 775
  17.959699 1  287             Rx   d 1 02  Length = 215797 BitCount = 58 ID = 647
  17.963283 1  307             Tx   d 1 FE  Length = 228000 BitCount = 60 ID = 775
  17.964699 1  287             Rx   d 1 02  Length = 215797 BitCount = 58 ID = 647
  17.965959 1  87              Rx   d 8 20 A0 00 00 10 00 00 00  Length = 471789 BitCount = 122 ID = 135
  17.969339 1  307             Tx   d 1 04  Length = 224015 BitCount = 59 ID = 775
  18.202829 1  287             Rx   d 1 04  Length = 219797 BitCount = 59 ID = 647
  18.206429 1  307             Tx   d 1 03  Length = 224015 BitCount = 59 ID = 775
  18.369914 1  287             Rx   d 1 03  Length = 215797 BitCount = 58 ID = 647
  18.374518 1  307             Tx   d 1 05  Length = 220000 BitCount = 58 ID = 775
  18.375914 1  287             Rx   d 1 03  Length = 215797 BitCount = 58 ID = 647
  18.377174 1  87              Rx   d 8 20 A0 00 00 10 00 00 00  Length = 471789 BitCount = 122 ID = 135
  18.381461 1  307             Tx   d 1 FF  Length = 220000 BitCount = 58 ID = 775
  18.382917 1  287             Rx   d 1 03  Length = 215797 BitCount = 58 ID = 647
  18.384177 1  87              Rx   d 8 20 A0 00 00 10 00 00 00  Length = 471789 BitCount = 122 ID = 135
  18.782128 1  707             Rx   d 1 05  Length = 215797 BitCount = 58 ID = 1799
  20.783172 1  707             Rx   d 1 05  Length = 215812 BitCount = 58 ID = 1799
End TriggerBlock
