date Wed Nov 13 10:11:46.835 am 2019
base hex  timestamps absolute
internal events logged
// version 9.0.0
Begin Triggerblock Wed Nov 13 10:11:46.835 am 2019
   0.000000 Start of measurement
   0.001978 1  707             Rx   d 1 7F  Length = 215797 BitCount = 58 ID = 1799
   0.003030 1  87              Rx   d 8 00 00 00 01 00 20 00 00  Length = 475804 BitCount = 123 ID = 135
   0.004034 1  87              Rx   d 8 00 00 00 01 00 00 00 00  Length = 479789 BitCount = 124 ID = 135
   0.006029 CAN 1 Status:chip status error active
   0.722142 1  707             Rx   d 1 7F  Length = 215812 BitCount = 58 ID = 1799
   2.723186 1  707             Rx   d 1 7F  Length = 215797 BitCount = 58 ID = 1799
   3.261142 1  0               Tx   d 2 81 07  Length = 264000 BitCount = 69 ID = 0
  13.961712 1  707             Rx   d 1 00  Length = 223797 BitCount = 60 ID = 1799
  14.461964 1  707             Rx   d 1 7F  Length = 215797 BitCount = 58 ID = 1799
  14.465320 1  0               Tx   d 2 01 07  Length = 260015 BitCount = 68 ID = 0
  14.467204 1  187             Rx   d 8 82 00 8E 06 3C 0A 8E 06  Length = 447789 BitCount = 116 ID = 391
  14.467963 1  287             Rx   d 1 01  Length = 211797 BitCount = 57 ID = 647
  14.469111 1  387             Rx   d 5 D0 07 00 00 00  Length = 355793 BitCount = 93 ID = 903
  14.469971 1  487             Rx   d 1 00  Length = 215797 BitCount = 58 ID = 1159
  14.470967 1  197             Rx   d 1 00  Length = 211812 BitCount = 57 ID = 407
  16.463012 1  707             Rx   d 1 05  Length = 215797 BitCount = 58 ID = 1799
  16.467496 1  607             Tx   d 8 40 00 23 00 00 00 00 00  Length = 484000 BitCount = 124 ID = 1543
  16.469264 1  587             Rx   d 8 43 00 23 00 01 00 00 00  Length = 463789 BitCount = 120 ID = 1415
  17.475320 1  307             Tx   d 1 00  Length = 224000 BitCount = 59 ID = 775
  17.476536 1  287             Rx   d 1 01  Length = 211812 BitCount = 57 ID = 647
  17.477800 1  87              Rx   d 8 20 A0 00 00 10 00 00 00  Length = 471789 BitCount = 122 ID = 135
  17.479568 1  607             Tx   d 8 40 00 23 00 00 00 00 00  Length = 484000 BitCount = 124 ID = 1543
  17.481792 1  587             Rx   d 8 43 00 23 00 01 00 00 00  Length = 463804 BitCount = 120 ID = 1415
  17.485284 1  307             Tx   d 1 01  Length = 224015 BitCount = 59 ID = 775
  17.487543 1  287             Rx   d 1 01  Length = 211797 BitCount = 57 ID = 647
  17.490547 1  607             Tx   d 8 40 00 23 00 00 00 00 00  Length = 484000 BitCount = 124 ID = 1543
  17.492799 1  587             Rx   d 8 43 00 23 00 02 00 00 00  Length = 463789 BitCount = 120 ID = 1415
  17.496287 1  307             Tx   d 1 FF  Length = 220000 BitCount = 58 ID = 775
  17.497547 1  287             Rx   d 1 01  Length = 211797 BitCount = 57 ID = 647
  17.498811 1  87              Rx   d 8 20 A0 00 00 10 00 00 00  Length = 471789 BitCount = 122 ID = 135
  17.500563 1  607             Tx   d 8 40 00 23 00 00 00 00 00  Length = 484015 BitCount = 124 ID = 1543
  17.502802 1  587             Rx   d 8 43 00 23 00 02 00 00 00  Length = 463789 BitCount = 120 ID = 1415
  17.506286 1  307             Tx   d 1 03  Length = 224000 BitCount = 59 ID = 775
  17.739677 1  287             Rx   d 1 03  Length = 215797 BitCount = 58 ID = 647
  17.743485 1  607             Tx   d 8 40 00 23 00 00 00 00 00  Length = 484015 BitCount = 124 ID = 1543
  17.744924 1  587             Rx   d 8 43 00 23 00 03 00 00 00  Length = 459789 BitCount = 119 ID = 1415
  17.748168 1  307             Tx   d 1 C4  Length = 216000 BitCount = 57 ID = 775
  17.749684 1  287             Rx   d 1 03  Length = 215797 BitCount = 58 ID = 647
  17.750940 1  87              Rx   d 8 20 A0 00 00 10 00 00 00  Length = 471789 BitCount = 122 ID = 135
  17.753472 1  607             Tx   d 8 40 00 23 00 00 00 00 00  Length = 484000 BitCount = 124 ID = 1543
  17.754932 1  587             Rx   d 8 43 00 23 00 03 00 00 00  Length = 459789 BitCount = 119 ID = 1415
  17.758180 1  307             Tx   d 1 04  Length = 224000 BitCount = 59 ID = 775
  17.921777 1  287             Rx   d 1 04  Length = 219797 BitCount = 59 ID = 647
  17.925472 1  607             Tx   d 8 40 00 23 00 00 00 00 00  Length = 484000 BitCount = 124 ID = 1543
  17.927024 1  587             Rx   d 8 43 00 23 00 04 00 00 00  Length = 463789 BitCount = 120 ID = 1415
  17.930172 1  307             Tx   d 1 02  Length = 220000 BitCount = 58 ID = 775
  18.163899 1  287             Rx   d 1 02  Length = 215797 BitCount = 58 ID = 647
  18.167515 1  607             Tx   d 8 40 00 23 00 00 00 00 00  Length = 484000 BitCount = 124 ID = 1543
  18.169150 1  587             Rx   d 8 43 00 23 00 05 00 00 00  Length = 463804 BitCount = 120 ID = 1415
  18.172222 1  307             Tx   d 1 A3  Length = 220015 BitCount = 58 ID = 775
  18.173906 1  287             Rx   d 1 02  Length = 215812 BitCount = 58 ID = 647
  18.175162 1  87              Rx   d 8 20 A0 00 00 10 00 00 00  Length = 471789 BitCount = 122 ID = 135
  18.177554 1  607             Tx   d 8 40 00 23 00 00 00 00 00  Length = 484000 BitCount = 124 ID = 1543
  18.179158 1  587             Rx   d 8 43 00 23 00 05 00 00 00  Length = 463789 BitCount = 120 ID = 1415
  18.464057 1  707             Rx   d 1 05  Length = 215812 BitCount = 58 ID = 1799
  20.465101 1  707             Rx   d 1 05  Length = 215797 BitCount = 58 ID = 1799
End TriggerBlock
