date Fri Jun 10 04:02:05.464 pm 2016
base hex  timestamps absolute
internal events logged
// version 8.5.0
Begin Triggerblock Fri Jun 10 04:02:05.464 pm 2016
   0.000000 Start of measurement
   0.001710 1  707             Rx   d 1 7F  Length = 215785 BitCount = 58 ID = 1799
   0.002214 1  87              Rx   d 8 00 00 00 01 00 20 00 00  Length = 475773 BitCount = 123 ID = 135
   0.003218 1  87              Rx   d 8 00 00 00 01 00 00 00 00  Length = 479773 BitCount = 124 ID = 135
   0.024706 CAN 1 Status:chip status error active
   0.528234 1  707             Rx   d 1 7F  Length = 215785 BitCount = 58 ID = 1799
   2.056982 1  0               Tx   d 2 81 07  Length = 263987 BitCount = 69 ID = 0
  11.404030 1  707             Rx   d 1 00  Length = 223781 BitCount = 60 ID = 1799
  11.904289 1  707             Rx   d 1 7F  Length = 215785 BitCount = 58 ID = 1799
  11.908437 1  607             Tx   d 8 2F 00 30 00 03 00 00 00  Length = 479987 BitCount = 123 ID = 1543
  11.910556 1  587             Rx   d 8 60 00 30 00 00 00 00 00  Length = 475773 BitCount = 123 ID = 1415
  11.913388 1  607             Tx   d 8 2B 00 60 00 C8 19 00 00  Length = 467987 BitCount = 120 ID = 1543
  11.915556 1  587             Rx   d 8 60 00 60 00 00 00 00 00  Length = 471773 BitCount = 122 ID = 1415
  12.922396 1  607             Tx   d 8 2B 38 60 01 00 80 00 00  Length = 467987 BitCount = 120 ID = 1543
  12.924088 1  587             Rx   d 8 80 38 60 01 02 10 00 00  Length = 463773 BitCount = 120 ID = 1415
  12.925104 1  87              Rx   d 8 20 A0 00 00 01 00 00 00  Length = 479773 BitCount = 124 ID = 135
  12.926092 1  87              Rx   d 8 00 82 00 27 02 10 00 00  Length = 467773 BitCount = 121 ID = 135
  13.429668 1  607             Tx   d 8 2B 38 60 01 01 80 00 00  Length = 471987 BitCount = 121 ID = 1543
  13.431356 1  587             Rx   d 8 80 38 60 01 02 10 00 00  Length = 463773 BitCount = 120 ID = 1415
  13.432375 1  87              Rx   d 8 20 A0 00 00 01 00 00 00  Length = 479773 BitCount = 124 ID = 135
  13.433363 1  87              Rx   d 8 00 82 00 27 02 10 00 00  Length = 467773 BitCount = 121 ID = 135
  13.905362 1  707             Rx   d 1 7F  Length = 215785 BitCount = 58 ID = 1799
  13.935566 1  607             Tx   d 8 2B 38 60 01 7E FF 00 00  Length = 475987 BitCount = 122 ID = 1543
  13.937630 1  587             Rx   d 8 60 38 60 01 00 00 00 00  Length = 463773 BitCount = 120 ID = 1415
  14.441626 1  607             Tx   d 8 40 40 60 00 00 00 00 00  Length = 483987 BitCount = 124 ID = 1543
  14.443898 1  587             Rx   d 8 4B 40 60 00 7E FF 00 00  Length = 459773 BitCount = 119 ID = 1415
  14.447490 1  607             Tx   d 8 2B 38 60 01 7F FF 00 00  Length = 475987 BitCount = 122 ID = 1543
  14.449905 1  587             Rx   d 8 60 38 60 01 00 00 00 00  Length = 463773 BitCount = 120 ID = 1415
  14.953441 1  607             Tx   d 8 40 40 60 00 00 00 00 00  Length = 483987 BitCount = 124 ID = 1543
  14.955173 1  587             Rx   d 8 4B 40 60 00 7F FF 00 00  Length = 463773 BitCount = 120 ID = 1415
  14.958333 1  607             Tx   d 8 2B 38 60 01 00 00 00 00  Length = 475987 BitCount = 122 ID = 1543
  14.960177 1  587             Rx   d 8 60 38 60 01 00 00 00 00  Length = 463773 BitCount = 120 ID = 1415
  15.463453 1  607             Tx   d 8 40 40 60 00 00 00 00 00  Length = 483987 BitCount = 124 ID = 1543
  15.465453 1  587             Rx   d 8 4B 40 60 00 00 00 00 00  Length = 467773 BitCount = 121 ID = 1415
  15.468493 1  607             Tx   d 8 2B 38 60 01 64 00 00 00  Length = 475987 BitCount = 122 ID = 1543
  15.470453 1  587             Rx   d 8 60 38 60 01 00 00 00 00  Length = 463773 BitCount = 120 ID = 1415
  15.906436 1  707             Rx   d 1 7F  Length = 215785 BitCount = 58 ID = 1799
  15.973504 1  607             Tx   d 8 40 40 60 00 00 00 00 00  Length = 483987 BitCount = 124 ID = 1543
  15.975724 1  587             Rx   d 8 4B 40 60 00 64 00 00 00  Length = 463773 BitCount = 120 ID = 1415
  15.979496 1  607             Tx   d 8 2B 38 60 01 81 00 00 00  Length = 471987 BitCount = 121 ID = 1543
  15.981728 1  587             Rx   d 8 60 38 60 01 00 00 00 00  Length = 463773 BitCount = 120 ID = 1415
  16.485364 1  607             Tx   d 8 40 40 60 00 00 00 00 00  Length = 483987 BitCount = 124 ID = 1543
  16.486991 1  587             Rx   d 8 4B 40 60 00 81 00 00 00  Length = 459773 BitCount = 119 ID = 1415
  16.490455 1  607             Tx   d 8 2B 38 60 01 82 00 00 00  Length = 475987 BitCount = 122 ID = 1543
  16.491999 1  587             Rx   d 8 60 38 60 01 00 00 00 00  Length = 463773 BitCount = 120 ID = 1415
  16.995455 1  607             Tx   d 8 40 40 60 00 00 00 00 00  Length = 483987 BitCount = 124 ID = 1543
  16.997275 1  587             Rx   d 8 4B 40 60 00 82 00 00 00  Length = 467773 BitCount = 121 ID = 1415
  17.501279 1  607             Tx   d 8 2B 38 60 01 FE 7F 00 00  Length = 467987 BitCount = 120 ID = 1543
  17.503543 1  587             Rx   d 8 80 38 60 01 02 20 00 00  Length = 463773 BitCount = 120 ID = 1415
  17.504559 1  87              Rx   d 8 20 A0 00 00 01 00 00 00  Length = 479773 BitCount = 124 ID = 135
  17.505550 1  87              Rx   d 8 00 82 00 27 02 20 00 00  Length = 467773 BitCount = 121 ID = 135
  17.907510 1  707             Rx   d 1 7F  Length = 215785 BitCount = 58 ID = 1799
  18.008414 1  607             Tx   d 8 2B 38 60 01 FF 7F 00 00  Length = 467987 BitCount = 120 ID = 1543
  18.010814 1  587             Rx   d 8 80 38 60 01 02 20 00 00  Length = 463773 BitCount = 120 ID = 1415
  18.011830 1  87              Rx   d 8 20 A0 00 00 01 00 00 00  Length = 479773 BitCount = 124 ID = 135
  18.012818 1  87              Rx   d 8 00 82 00 27 02 20 00 00  Length = 467773 BitCount = 121 ID = 135
  19.239146 1  0               Tx   d 2 81 07  Length = 263987 BitCount = 69 ID = 0
  28.532999 1  707             Rx   d 1 00  Length = 223781 BitCount = 60 ID = 1799
  29.033258 1  707             Rx   d 1 7F  Length = 215785 BitCount = 58 ID = 1799
  29.037458 1  607             Tx   d 8 2F 00 30 00 03 00 00 00  Length = 479987 BitCount = 123 ID = 1543
  29.039526 1  587             Rx   d 8 60 00 30 00 00 00 00 00  Length = 475773 BitCount = 123 ID = 1415
  29.042406 1  607             Tx   d 8 2B 00 60 00 C8 19 00 00  Length = 467987 BitCount = 120 ID = 1543
  29.044525 1  587             Rx   d 8 60 00 60 00 00 00 00 00  Length = 471773 BitCount = 122 ID = 1415
  30.051485 1  607             Tx   d 8 2B 39 60 01 00 80 00 00  Length = 471987 BitCount = 121 ID = 1543
  30.053057 1  587             Rx   d 8 80 39 60 01 02 10 00 00  Length = 463773 BitCount = 120 ID = 1415
  30.054073 1  87              Rx   d 8 20 A0 00 00 02 00 00 00  Length = 479773 BitCount = 124 ID = 135
  30.055061 1  87              Rx   d 8 00 82 00 27 02 10 00 00  Length = 467773 BitCount = 121 ID = 135
  30.558577 1  607             Tx   d 8 2B 39 60 01 01 80 00 00  Length = 467987 BitCount = 120 ID = 1543
  30.560329 1  587             Rx   d 8 80 39 60 01 02 10 00 00  Length = 463773 BitCount = 120 ID = 1415
  30.561344 1  87              Rx   d 8 20 A0 00 00 02 00 00 00  Length = 479773 BitCount = 124 ID = 135
  30.562336 1  87              Rx   d 8 00 82 00 27 02 10 00 00  Length = 467773 BitCount = 121 ID = 135
  31.034331 1  707             Rx   d 1 7F  Length = 215785 BitCount = 58 ID = 1799
  31.064663 1  607             Tx   d 8 2B 39 60 01 A2 FE 00 00  Length = 471987 BitCount = 121 ID = 1543
  31.066599 1  587             Rx   d 8 60 39 60 01 00 00 00 00  Length = 463773 BitCount = 120 ID = 1415
  31.570715 1  607             Tx   d 8 40 41 60 00 00 00 00 00  Length = 479987 BitCount = 123 ID = 1543
  31.572867 1  587             Rx   d 8 4B 41 60 00 A2 FE 00 00  Length = 459773 BitCount = 119 ID = 1415
  31.576703 1  607             Tx   d 8 2B 39 60 01 A3 FE 00 00  Length = 463987 BitCount = 119 ID = 1543
  31.578875 1  587             Rx   d 8 60 39 60 01 00 00 00 00  Length = 463773 BitCount = 120 ID = 1415
  32.082555 1  607             Tx   d 8 40 41 60 00 00 00 00 00  Length = 479987 BitCount = 123 ID = 1543
  32.084138 1  587             Rx   d 8 4B 41 60 00 A3 FE 00 00  Length = 455773 BitCount = 118 ID = 1415
  32.087502 1  607             Tx   d 8 2B 39 60 01 00 00 00 00  Length = 471987 BitCount = 121 ID = 1543
  32.089146 1  587             Rx   d 8 60 39 60 01 00 00 00 00  Length = 463773 BitCount = 120 ID = 1415
  32.592702 1  607             Tx   d 8 40 41 60 00 00 00 00 00  Length = 479987 BitCount = 123 ID = 1543
  32.594426 1  587             Rx   d 8 4B 41 60 00 00 00 00 00  Length = 471773 BitCount = 122 ID = 1415
  32.597726 1  607             Tx   d 8 2B 39 60 01 E8 03 00 00  Length = 463987 BitCount = 119 ID = 1543
  32.599422 1  587             Rx   d 8 60 39 60 01 00 00 00 00  Length = 463773 BitCount = 120 ID = 1415
  33.035405 1  707             Rx   d 1 7F  Length = 215785 BitCount = 58 ID = 1799
  33.102481 1  607             Tx   d 8 40 41 60 00 00 00 00 00  Length = 479987 BitCount = 123 ID = 1543
  33.104685 1  587             Rx   d 8 4B 41 60 00 E8 03 00 00  Length = 455773 BitCount = 118 ID = 1415
  33.108437 1  607             Tx   d 8 2B 39 60 01 8D 06 00 00  Length = 463987 BitCount = 119 ID = 1543
  33.110697 1  587             Rx   d 8 60 39 60 01 00 00 00 00  Length = 463773 BitCount = 120 ID = 1415
  33.614729 1  607             Tx   d 8 40 41 60 00 00 00 00 00  Length = 479987 BitCount = 123 ID = 1543
  33.616960 1  587             Rx   d 8 4B 41 60 00 8D 06 00 00  Length = 455773 BitCount = 118 ID = 1415
  33.620724 1  607             Tx   d 8 2B 39 60 01 8E 06 00 00  Length = 467987 BitCount = 120 ID = 1543
  33.622968 1  587             Rx   d 8 60 39 60 01 00 00 00 00  Length = 463773 BitCount = 120 ID = 1415
  34.126532 1  607             Tx   d 8 40 41 60 00 00 00 00 00  Length = 479987 BitCount = 123 ID = 1543
  34.128232 1  587             Rx   d 8 4B 41 60 00 8E 06 00 00  Length = 455773 BitCount = 118 ID = 1415
  34.632732 1  607             Tx   d 8 2B 39 60 01 FE 7F 00 00  Length = 467987 BitCount = 120 ID = 1543
  34.634512 1  587             Rx   d 8 80 39 60 01 02 20 00 00  Length = 459773 BitCount = 119 ID = 1415
  34.635532 1  87              Rx   d 8 20 A0 00 00 02 00 00 00  Length = 479773 BitCount = 124 ID = 135
  34.636520 1  87              Rx   d 8 00 82 00 27 02 20 00 00  Length = 467773 BitCount = 121 ID = 135
  35.036480 1  707             Rx   d 1 7F  Length = 215785 BitCount = 58 ID = 1799
  35.139656 1  607             Tx   d 8 2B 39 60 01 FF 7F 00 00  Length = 467987 BitCount = 120 ID = 1543
  35.141779 1  587             Rx   d 8 80 39 60 01 02 20 00 00  Length = 459773 BitCount = 119 ID = 1415
  35.142803 1  87              Rx   d 8 20 A0 00 00 02 00 00 00  Length = 479773 BitCount = 124 ID = 135
  35.143791 1  87              Rx   d 8 00 82 00 27 02 20 00 00  Length = 467773 BitCount = 121 ID = 135
  36.361423 1  0               Tx   d 2 81 07  Length = 263987 BitCount = 69 ID = 0
  45.654913 1  707             Rx   d 1 00  Length = 223781 BitCount = 60 ID = 1799
  46.155172 1  707             Rx   d 1 7F  Length = 215785 BitCount = 58 ID = 1799
  46.159644 1  607             Tx   d 8 2F 00 30 00 03 00 00 00  Length = 479987 BitCount = 123 ID = 1543
  46.161440 1  587             Rx   d 8 60 00 30 00 00 00 00 00  Length = 475773 BitCount = 123 ID = 1415
  46.164744 1  607             Tx   d 8 2B 00 60 00 C8 19 00 00  Length = 467987 BitCount = 120 ID = 1543
  46.166439 1  587             Rx   d 8 60 00 60 00 00 00 00 00  Length = 471773 BitCount = 122 ID = 1415
  47.173563 1  607             Tx   d 8 2B 3A 60 01 00 80 00 00  Length = 471987 BitCount = 121 ID = 1543
  47.175971 1  587             Rx   d 8 80 3A 60 01 02 10 00 00  Length = 463773 BitCount = 120 ID = 1415
  47.176987 1  87              Rx   d 8 20 A0 00 00 04 00 00 00  Length = 479773 BitCount = 124 ID = 135
  47.177975 1  87              Rx   d 8 00 82 00 27 02 10 00 00  Length = 467773 BitCount = 121 ID = 135
  47.681459 1  607             Tx   d 8 2B 3A 60 01 01 80 00 00  Length = 471987 BitCount = 121 ID = 1543
  47.683242 1  587             Rx   d 8 80 3A 60 01 02 10 00 00  Length = 463773 BitCount = 120 ID = 1415
  47.684258 1  87              Rx   d 8 20 A0 00 00 04 00 00 00  Length = 479773 BitCount = 124 ID = 135
  47.685246 1  87              Rx   d 8 00 82 00 27 02 10 00 00  Length = 467773 BitCount = 121 ID = 135
  48.156245 1  707             Rx   d 1 7F  Length = 215785 BitCount = 58 ID = 1799
  48.187685 1  607             Tx   d 8 2B 3A 60 01 26 02 00 00  Length = 467987 BitCount = 120 ID = 1543
  48.189513 1  587             Rx   d 8 60 3A 60 01 00 00 00 00  Length = 463773 BitCount = 120 ID = 1415
  48.692489 1  607             Tx   d 8 40 42 60 00 00 00 00 00  Length = 479987 BitCount = 123 ID = 1543
  48.694777 1  587             Rx   d 8 4B 42 60 00 26 02 00 00  Length = 455773 BitCount = 118 ID = 1415
  48.698441 1  607             Tx   d 8 2B 3A 60 01 27 02 00 00  Length = 467987 BitCount = 120 ID = 1543
  48.700788 1  587             Rx   d 8 60 3A 60 01 00 00 00 00  Length = 463773 BitCount = 120 ID = 1415
  49.204680 1  607             Tx   d 8 40 42 60 00 00 00 00 00  Length = 479987 BitCount = 123 ID = 1543
  49.207052 1  587             Rx   d 8 4B 42 60 00 27 02 00 00  Length = 455773 BitCount = 118 ID = 1415
  49.210672 1  607             Tx   d 8 2B 3A 60 01 E8 03 00 00  Length = 463987 BitCount = 119 ID = 1543
  49.213064 1  587             Rx   d 8 60 3A 60 01 00 00 00 00  Length = 463773 BitCount = 120 ID = 1415
  49.716524 1  607             Tx   d 8 40 42 60 00 00 00 00 00  Length = 479987 BitCount = 123 ID = 1543
  49.718323 1  587             Rx   d 8 4B 42 60 00 E8 03 00 00  Length = 455773 BitCount = 118 ID = 1415
  49.721511 1  607             Tx   d 8 2B 3A 60 01 D0 07 00 00  Length = 467987 BitCount = 120 ID = 1543
  49.723339 1  587             Rx   d 8 60 3A 60 01 00 00 00 00  Length = 463773 BitCount = 120 ID = 1415
  50.157319 1  707             Rx   d 1 7F  Length = 215785 BitCount = 58 ID = 1799
  50.226663 1  607             Tx   d 8 40 42 60 00 00 00 00 00  Length = 479987 BitCount = 123 ID = 1543
  50.228595 1  587             Rx   d 8 4B 42 60 00 D0 07 00 00  Length = 451777 BitCount = 117 ID = 1415
  50.232639 1  607             Tx   d 8 2B 3A 60 01 3B 0A 00 00  Length = 459987 BitCount = 118 ID = 1543
  50.234610 1  587             Rx   d 8 60 3A 60 01 00 00 00 00  Length = 463773 BitCount = 120 ID = 1415
  50.738638 1  607             Tx   d 8 40 42 60 00 00 00 00 00  Length = 479987 BitCount = 123 ID = 1543
  50.740870 1  587             Rx   d 8 4B 42 60 00 3B 0A 00 00  Length = 451777 BitCount = 117 ID = 1415
  50.744642 1  607             Tx   d 8 2B 3A 60 01 3C 0A 00 00  Length = 467987 BitCount = 120 ID = 1543
  50.746886 1  587             Rx   d 8 60 3A 60 01 00 00 00 00  Length = 463773 BitCount = 120 ID = 1415
  51.250718 1  607             Tx   d 8 40 42 60 00 00 00 00 00  Length = 479987 BitCount = 123 ID = 1543
  51.253157 1  587             Rx   d 8 4B 42 60 00 3C 0A 00 00  Length = 463773 BitCount = 120 ID = 1415
  51.757753 1  607             Tx   d 8 2B 3A 60 01 FE 7F 00 00  Length = 467987 BitCount = 120 ID = 1543
  51.759433 1  587             Rx   d 8 80 3A 60 01 02 20 00 00  Length = 467773 BitCount = 121 ID = 1415
  51.760445 1  87              Rx   d 8 20 A0 00 00 04 00 00 00  Length = 479773 BitCount = 124 ID = 135
  51.761437 1  87              Rx   d 8 00 82 00 27 02 20 00 00  Length = 467773 BitCount = 121 ID = 135
  52.158393 1  707             Rx   d 1 7F  Length = 215785 BitCount = 58 ID = 1799
  52.264433 1  607             Tx   d 8 2B 3A 60 01 FF 7F 00 00  Length = 467987 BitCount = 120 ID = 1543
  52.266705 1  587             Rx   d 8 80 3A 60 01 02 20 00 00  Length = 467773 BitCount = 121 ID = 1415
  52.267717 1  87              Rx   d 8 20 A0 00 00 04 00 00 00  Length = 479773 BitCount = 124 ID = 135
  52.268705 1  87              Rx   d 8 00 82 00 27 02 20 00 00  Length = 467773 BitCount = 121 ID = 135
  53.485237 1  0               Tx   d 2 81 07  Length = 263987 BitCount = 69 ID = 0
  62.779579 1  707             Rx   d 1 00  Length = 223781 BitCount = 60 ID = 1799
  63.279838 1  707             Rx   d 1 7F  Length = 215785 BitCount = 58 ID = 1799
  63.284430 1  607             Tx   d 8 2F 00 30 00 03 00 00 00  Length = 479987 BitCount = 123 ID = 1543
  63.286106 1  587             Rx   d 8 60 00 30 00 00 00 00 00  Length = 475773 BitCount = 123 ID = 1415
  63.289414 1  607             Tx   d 8 2B 00 60 00 C8 19 00 00  Length = 467987 BitCount = 120 ID = 1543
  63.291110 1  587             Rx   d 8 60 00 60 00 00 00 00 00  Length = 471773 BitCount = 122 ID = 1415
  64.298558 1  607             Tx   d 8 2B 3B 60 01 00 80 00 00  Length = 471987 BitCount = 121 ID = 1543
  64.300638 1  587             Rx   d 8 80 3B 60 01 02 10 00 00  Length = 463773 BitCount = 120 ID = 1415
  64.301650 1  87              Rx   d 8 20 A0 00 00 08 00 00 00  Length = 475773 BitCount = 123 ID = 135
  64.302642 1  87              Rx   d 8 00 82 00 27 02 10 00 00  Length = 467773 BitCount = 121 ID = 135
  64.806610 1  607             Tx   d 8 2B 3B 60 01 01 80 00 00  Length = 475987 BitCount = 122 ID = 1543
  64.808909 1  587             Rx   d 8 80 3B 60 01 02 10 00 00  Length = 463773 BitCount = 120 ID = 1415
  64.809921 1  87              Rx   d 8 20 A0 00 00 08 00 00 00  Length = 475773 BitCount = 123 ID = 135
  64.810913 1  87              Rx   d 8 00 82 00 27 02 10 00 00  Length = 467773 BitCount = 121 ID = 135
  65.280912 1  707             Rx   d 1 7F  Length = 215785 BitCount = 58 ID = 1799
  65.313436 1  607             Tx   d 8 2B 3B 60 01 A2 FE 00 00  Length = 463987 BitCount = 119 ID = 1543
  65.315180 1  587             Rx   d 8 60 3B 60 01 00 00 00 00  Length = 463773 BitCount = 120 ID = 1415
  65.818704 1  607             Tx   d 8 40 43 60 00 00 00 00 00  Length = 475987 BitCount = 122 ID = 1543
  65.820444 1  587             Rx   d 8 4B 43 60 00 A2 FE 00 00  Length = 455773 BitCount = 118 ID = 1415
  65.823692 1  607             Tx   d 8 2B 3B 60 01 A3 FE 00 00  Length = 463987 BitCount = 119 ID = 1543
  65.825455 1  587             Rx   d 8 60 3B 60 01 00 00 00 00  Length = 463773 BitCount = 120 ID = 1415
  66.328695 1  607             Tx   d 8 40 43 60 00 00 00 00 00  Length = 475987 BitCount = 122 ID = 1543
  66.330715 1  587             Rx   d 8 4B 43 60 00 A3 FE 00 00  Length = 455773 BitCount = 118 ID = 1415
  66.334707 1  607             Tx   d 8 2B 3B 60 01 00 00 00 00  Length = 479987 BitCount = 123 ID = 1543
  66.336731 1  587             Rx   d 8 60 3B 60 01 00 00 00 00  Length = 463773 BitCount = 120 ID = 1415
  66.840575 1  607             Tx   d 8 40 43 60 00 00 00 00 00  Length = 475987 BitCount = 122 ID = 1543
  66.842998 1  587             Rx   d 8 4B 43 60 00 00 00 00 00  Length = 463773 BitCount = 120 ID = 1415
  66.846594 1  607             Tx   d 8 2B 3B 60 01 E8 03 00 00  Length = 471987 BitCount = 121 ID = 1543
  66.849006 1  587             Rx   d 8 60 3B 60 01 00 00 00 00  Length = 463773 BitCount = 120 ID = 1415
  67.281986 1  707             Rx   d 1 7F  Length = 215785 BitCount = 58 ID = 1799
  67.352674 1  607             Tx   d 8 40 43 60 00 00 00 00 00  Length = 475987 BitCount = 122 ID = 1543
  67.354270 1  587             Rx   d 8 4B 43 60 00 E8 03 00 00  Length = 455773 BitCount = 118 ID = 1415
  67.357678 1  607             Tx   d 8 2B 3B 60 01 8D 06 00 00  Length = 467987 BitCount = 120 ID = 1543
  67.359282 1  587             Rx   d 8 60 3B 60 01 00 00 00 00  Length = 463773 BitCount = 120 ID = 1415
  67.862510 1  607             Tx   d 8 40 43 60 00 00 00 00 00  Length = 475987 BitCount = 122 ID = 1543
  67.864538 1  587             Rx   d 8 4B 43 60 00 8D 06 00 00  Length = 451777 BitCount = 117 ID = 1415
  67.867442 1  607             Tx   d 8 2B 3B 60 01 8E 06 00 00  Length = 463987 BitCount = 119 ID = 1543
  67.869553 1  587             Rx   d 8 60 3B 60 01 00 00 00 00  Length = 463773 BitCount = 120 ID = 1415
  68.372673 1  607             Tx   d 8 40 43 60 00 00 00 00 00  Length = 475987 BitCount = 122 ID = 1543
  68.374813 1  587             Rx   d 8 4B 43 60 00 8E 06 00 00  Length = 455773 BitCount = 118 ID = 1415
  68.879365 1  607             Tx   d 8 2B 3B 60 01 FE 7F 00 00  Length = 467987 BitCount = 120 ID = 1543
  68.881093 1  587             Rx   d 8 80 3B 60 01 02 20 00 00  Length = 459773 BitCount = 119 ID = 1415
  68.882109 1  87              Rx   d 8 20 A0 00 00 08 00 00 00  Length = 475773 BitCount = 123 ID = 135
  68.883101 1  87              Rx   d 8 00 82 00 27 02 20 00 00  Length = 467773 BitCount = 121 ID = 135
  69.283061 1  707             Rx   d 1 7F  Length = 215785 BitCount = 58 ID = 1799
  69.386645 1  607             Tx   d 8 2B 3B 60 01 FF 7F 00 00  Length = 471987 BitCount = 121 ID = 1543
  69.388361 1  587             Rx   d 8 80 3B 60 01 02 20 00 00  Length = 459773 BitCount = 119 ID = 1415
  69.389377 1  87              Rx   d 8 20 A0 00 00 08 00 00 00  Length = 475773 BitCount = 123 ID = 135
  69.390372 1  87              Rx   d 8 00 82 00 27 02 20 00 00  Length = 467773 BitCount = 121 ID = 135
  71.284135 1  707             Rx   d 1 7F  Length = 215785 BitCount = 58 ID = 1799
  73.285207 1  707             Rx   d 1 7F  Length = 215785 BitCount = 58 ID = 1799
  75.286280 1  707             Rx   d 1 7F  Length = 215785 BitCount = 58 ID = 1799
  77.287356 1  707             Rx   d 1 7F  Length = 215785 BitCount = 58 ID = 1799
  79.288429 1  707             Rx   d 1 7F  Length = 215785 BitCount = 58 ID = 1799
  81.289501 1  707             Rx   d 1 7F  Length = 215785 BitCount = 58 ID = 1799
  83.290578 1  707             Rx   d 1 7F  Length = 215785 BitCount = 58 ID = 1799
  85.291651 1  707             Rx   d 1 7F  Length = 215785 BitCount = 58 ID = 1799
  87.292723 1  707             Rx   d 1 7F  Length = 215785 BitCount = 58 ID = 1799
  89.293800 1  707             Rx   d 1 7F  Length = 215785 BitCount = 58 ID = 1799
  91.294872 1  707             Rx   d 1 7F  Length = 215785 BitCount = 58 ID = 1799
End TriggerBlock
