date Thu Jul 28 05:17:05.395 pm 2016
base hex  timestamps absolute
internal events logged
// version 8.5.0
Begin Triggerblock Fri Jun 10 03:59:59.150 pm 2016
   0.000000 Start of measurement
   0.002335 1  707             Rx   d 1 7F  Length = 215785 BitCount = 58 ID = 1799
   0.003707 1  87              Rx   d 8 00 00 00 01 00 20 00 00  Length = 475773 BitCount = 123 ID = 135
   0.004711 1  87              Rx   d 8 00 00 00 01 00 00 00 00  Length = 479773 BitCount = 124 ID = 135
   0.020070 CAN 1 Status:chip status error active
   1.157855 1  707             Rx   d 1 7F  Length = 215785 BitCount = 58 ID = 1799
   1.815843 1  0               Tx   d 2 81 07  Length = 263987 BitCount = 69 ID = 0
  12.008496 1  707             Rx   d 1 00  Length = 223781 BitCount = 60 ID = 1799
  12.508623 1  707             Rx   d 1 7F  Length = 215785 BitCount = 58 ID = 1799
  12.512427 1  607             Tx   d 8 2F 00 30 00 02 00 00 00  Length = 479987 BitCount = 123 ID = 1543
  12.513886 1  587             Rx   d 8 60 00 30 00 00 00 00 00  Length = 475773 BitCount = 123 ID = 1415
  12.517350 1  607             Tx   d 8 2B 00 60 00 C8 19 00 00  Length = 467987 BitCount = 120 ID = 1543
  12.518890 1  587             Rx   d 8 60 00 60 00 00 00 00 00  Length = 471773 BitCount = 122 ID = 1415
  13.526518 1  607             Tx   d 8 2B 38 60 01 00 80 00 00  Length = 467987 BitCount = 120 ID = 1543
  13.528153 1  587             Rx   d 8 80 38 60 01 02 10 00 00  Length = 463773 BitCount = 120 ID = 1415
  13.529169 1  87              Rx   d 8 20 A0 00 00 01 00 00 00  Length = 479773 BitCount = 124 ID = 135
  13.530157 1  87              Rx   d 8 00 82 00 27 02 10 00 00  Length = 467773 BitCount = 121 ID = 135
  14.033389 1  607             Tx   d 8 2B 38 60 01 01 80 00 00  Length = 471987 BitCount = 121 ID = 1543
  14.035288 1  587             Rx   d 8 80 38 60 01 02 10 00 00  Length = 463773 BitCount = 120 ID = 1415
  14.036304 1  87              Rx   d 8 20 A0 00 00 01 00 00 00  Length = 479773 BitCount = 124 ID = 135
  14.037295 1  87              Rx   d 8 00 82 00 27 02 10 00 00  Length = 467773 BitCount = 121 ID = 135
  14.509169 1  707             Rx   d 1 7F  Length = 215785 BitCount = 58 ID = 1799
  14.539589 1  607             Tx   d 8 2B 38 60 01 7E FF 00 00  Length = 475987 BitCount = 122 ID = 1543
  14.541429 1  587             Rx   d 8 60 38 60 01 00 00 00 00  Length = 463773 BitCount = 120 ID = 1415
  15.044473 1  607             Tx   d 8 40 40 60 00 00 00 00 00  Length = 483987 BitCount = 124 ID = 1543
  15.046560 1  587             Rx   d 8 4B 40 60 00 7E FF 00 00  Length = 459773 BitCount = 119 ID = 1415
  15.049360 1  607             Tx   d 8 2B 38 60 01 7F FF 00 00  Length = 475987 BitCount = 122 ID = 1543
  15.051567 1  587             Rx   d 8 60 38 60 01 00 00 00 00  Length = 463773 BitCount = 120 ID = 1415
  15.554455 1  607             Tx   d 8 40 40 60 00 00 00 00 00  Length = 483987 BitCount = 124 ID = 1543
  15.556703 1  587             Rx   d 8 4B 40 60 00 7F FF 00 00  Length = 463773 BitCount = 120 ID = 1415
  15.560563 1  607             Tx   d 8 2B 38 60 01 00 00 00 00  Length = 475987 BitCount = 122 ID = 1543
  15.562706 1  587             Rx   d 8 60 38 60 01 00 00 00 00  Length = 463773 BitCount = 120 ID = 1415
  16.066318 1  607             Tx   d 8 40 40 60 00 00 00 00 00  Length = 483987 BitCount = 124 ID = 1543
  16.067845 1  587             Rx   d 8 4B 40 60 00 00 00 00 00  Length = 467773 BitCount = 121 ID = 1415
  16.071305 1  607             Tx   d 8 2B 38 60 01 64 00 00 00  Length = 475987 BitCount = 122 ID = 1543
  16.072845 1  587             Rx   d 8 60 38 60 01 00 00 00 00  Length = 463773 BitCount = 120 ID = 1415
  16.509713 1  707             Rx   d 1 7F  Length = 215785 BitCount = 58 ID = 1799
  16.576289 1  607             Tx   d 8 40 40 60 00 00 00 00 00  Length = 483987 BitCount = 124 ID = 1543
  16.577976 1  587             Rx   d 8 4B 40 60 00 64 00 00 00  Length = 463773 BitCount = 120 ID = 1415
  17.579560 1  607             Tx   d 8 2B 38 60 01 8B 00 00 00  Length = 471987 BitCount = 121 ID = 1543
  17.581256 1  587             Rx   d 8 60 38 60 01 00 00 00 00  Length = 463773 BitCount = 120 ID = 1415
  18.084288 1  607             Tx   d 8 40 40 60 00 00 00 00 00  Length = 483987 BitCount = 124 ID = 1543
  18.086391 1  587             Rx   d 8 4B 40 60 00 8B 00 00 00  Length = 463773 BitCount = 120 ID = 1415
  18.510260 1  607             Tx   d 8 2B 38 60 01 8C 00 00 00  Length = 475987 BitCount = 122 ID = 1543
  19.087408 1  587             Rx   d 8 60 38 60 01 00 00 00 00  Length = 463773 BitCount = 120 ID = 1415
  19.089667 1  707             Rx   d 1 7F  Length = 215785 BitCount = 58 ID = 1799
  19.593263 1  607             Tx   d 8 40 40 60 00 00 00 00 00  Length = 483987 BitCount = 124 ID = 1543
  19.594799 1  587             Rx   d 8 4B 40 60 00 8C 00 00 00  Length = 463773 BitCount = 120 ID = 1415
  20.510802 1  607             Tx   d 8 2B 38 60 01 FE 7F 00 00  Length = 467987 BitCount = 120 ID = 1543
  21.097318 1  587             Rx   d 8 80 38 60 01 02 20 00 00  Length = 463773 BitCount = 120 ID = 1415
  21.099213 1  87              Rx   d 8 20 A0 00 00 01 00 00 00  Length = 479773 BitCount = 124 ID = 135
  21.100229 1  87              Rx   d 8 00 82 00 27 02 20 00 00  Length = 467773 BitCount = 121 ID = 135
  21.101220 1  707             Rx   d 1 7F  Length = 215785 BitCount = 58 ID = 1799
  21.604540 1  607             Tx   d 8 2B 38 60 01 FF 7F 00 00  Length = 467987 BitCount = 120 ID = 1543
  21.606352 1  587             Rx   d 8 80 38 60 01 02 20 00 00  Length = 463773 BitCount = 120 ID = 1415
  21.607367 1  87              Rx   d 8 20 A0 00 00 01 00 00 00  Length = 479773 BitCount = 124 ID = 135
  21.608355 1  87              Rx   d 8 00 82 00 27 02 20 00 00  Length = 467773 BitCount = 121 ID = 135
  22.511347 1  0               Tx   d 2 81 07  Length = 263987 BitCount = 69 ID = 0
  22.808259 1  707             Rx   d 1 00  Length = 223781 BitCount = 60 ID = 1799
  32.001445 1  707             Rx   d 1 7F  Length = 215785 BitCount = 58 ID = 1799
  32.501572 1  607             Tx   d 8 2F 00 30 00 02 00 00 00  Length = 479987 BitCount = 123 ID = 1543
  32.505472 1  587             Rx   d 8 60 00 30 00 00 00 00 00  Length = 475773 BitCount = 123 ID = 1415
  32.507839 1  607             Tx   d 8 2B 00 60 00 C8 19 00 00  Length = 467987 BitCount = 120 ID = 1543
  32.511671 1  587             Rx   d 8 60 00 60 00 00 00 00 00  Length = 471773 BitCount = 122 ID = 1415
  32.513842 1  607             Tx   d 8 2B 39 60 01 00 80 00 00  Length = 471987 BitCount = 121 ID = 1543
  33.521510 1  587             Rx   d 8 80 39 60 01 02 10 00 00  Length = 463773 BitCount = 120 ID = 1415
  33.523105 1  87              Rx   d 8 20 A0 00 00 02 00 00 00  Length = 479773 BitCount = 124 ID = 135
  33.524121 1  87              Rx   d 8 00 82 00 27 02 10 00 00  Length = 467773 BitCount = 121 ID = 135
  33.525109 1  607             Tx   d 8 2B 39 60 01 01 80 00 00  Length = 467987 BitCount = 120 ID = 1543
  34.028561 1  587             Rx   d 8 80 39 60 01 02 10 00 00  Length = 463773 BitCount = 120 ID = 1415
  34.030244 1  87              Rx   d 8 20 A0 00 00 02 00 00 00  Length = 479773 BitCount = 124 ID = 135
  34.031260 1  87              Rx   d 8 00 82 00 27 02 10 00 00  Length = 467773 BitCount = 121 ID = 135
  34.032248 1  707             Rx   d 1 7F  Length = 215785 BitCount = 58 ID = 1799
  34.502118 1  607             Tx   d 8 2B 39 60 01 A2 FE 00 00  Length = 471987 BitCount = 121 ID = 1543
  34.534574 1  587             Rx   d 8 60 39 60 01 00 00 00 00  Length = 463773 BitCount = 120 ID = 1415
  34.536378 1  607             Tx   d 8 40 41 60 00 00 00 00 00  Length = 479987 BitCount = 123 ID = 1543
  35.039574 1  587             Rx   d 8 4B 41 60 00 A2 FE 00 00  Length = 459773 BitCount = 119 ID = 1415
  35.041513 1  607             Tx   d 8 2B 39 60 01 A3 FE 00 00  Length = 463987 BitCount = 119 ID = 1543
  35.044557 1  587             Rx   d 8 60 39 60 01 00 00 00 00  Length = 463773 BitCount = 120 ID = 1415
  35.046516 1  607             Tx   d 8 40 41 60 00 00 00 00 00  Length = 479987 BitCount = 123 ID = 1543
  35.549564 1  587             Rx   d 8 4B 41 60 00 A3 FE 00 00  Length = 455773 BitCount = 118 ID = 1415
  35.551647 1  607             Tx   d 8 2B 39 60 01 00 00 00 00  Length = 471987 BitCount = 121 ID = 1543
  35.555563 1  587             Rx   d 8 60 39 60 01 00 00 00 00  Length = 463773 BitCount = 120 ID = 1415
  35.557659 1  607             Tx   d 8 40 41 60 00 00 00 00 00  Length = 479987 BitCount = 123 ID = 1543
  36.061567 1  587             Rx   d 8 4B 41 60 00 00 00 00 00  Length = 471773 BitCount = 122 ID = 1415
  36.063802 1  607             Tx   d 8 2B 39 60 01 E8 03 00 00  Length = 463987 BitCount = 119 ID = 1543
  36.067434 1  587             Rx   d 8 60 39 60 01 00 00 00 00  Length = 463773 BitCount = 120 ID = 1415
  36.069797 1  707             Rx   d 1 7F  Length = 215785 BitCount = 58 ID = 1799
  36.502663 1  607             Tx   d 8 40 41 60 00 00 00 00 00  Length = 479987 BitCount = 123 ID = 1543
  36.573587 1  587             Rx   d 8 4B 41 60 00 E8 03 00 00  Length = 455773 BitCount = 118 ID = 1415
  36.575926 1  607             Tx   d 8 2B 39 60 01 8D 06 00 00  Length = 463987 BitCount = 119 ID = 1543
  36.579530 1  587             Rx   d 8 60 39 60 01 00 00 00 00  Length = 463773 BitCount = 120 ID = 1415
  36.581937 1  607             Tx   d 8 40 41 60 00 00 00 00 00  Length = 479987 BitCount = 123 ID = 1543
  37.085581 1  587             Rx   d 8 4B 41 60 00 8D 06 00 00  Length = 455773 BitCount = 118 ID = 1415
  37.087065 1  607             Tx   d 8 2B 39 60 01 8E 06 00 00  Length = 467987 BitCount = 120 ID = 1543
  37.090561 1  587             Rx   d 8 60 39 60 01 00 00 00 00  Length = 463773 BitCount = 120 ID = 1415
  37.092076 1  607             Tx   d 8 40 41 60 00 00 00 00 00  Length = 479987 BitCount = 123 ID = 1543
  37.595588 1  587             Rx   d 8 4B 41 60 00 8E 06 00 00  Length = 455773 BitCount = 118 ID = 1415
  37.597204 1  607             Tx   d 8 2B 39 60 01 FE 7F 00 00  Length = 467987 BitCount = 120 ID = 1543
  38.101564 1  587             Rx   d 8 80 39 60 01 02 20 00 00  Length = 459773 BitCount = 119 ID = 1415
  38.103347 1  87              Rx   d 8 20 A0 00 00 02 00 00 00  Length = 479773 BitCount = 124 ID = 135
  38.104366 1  87              Rx   d 8 00 82 00 27 02 20 00 00  Length = 467773 BitCount = 121 ID = 135
  38.105354 1  707             Rx   d 1 7F  Length = 215785 BitCount = 58 ID = 1799
  38.503209 1  607             Tx   d 8 2B 39 60 01 FF 7F 00 00  Length = 467987 BitCount = 120 ID = 1543
  38.608557 1  587             Rx   d 8 80 39 60 01 02 20 00 00  Length = 459773 BitCount = 119 ID = 1415
  38.610485 1  87              Rx   d 8 20 A0 00 00 02 00 00 00  Length = 479773 BitCount = 124 ID = 135
  38.611504 1  87              Rx   d 8 00 82 00 27 02 20 00 00  Length = 467773 BitCount = 121 ID = 135
  38.612492 1  0               Tx   d 2 81 07  Length = 263987 BitCount = 69 ID = 0
  39.805816 1  707             Rx   d 1 00  Length = 223781 BitCount = 60 ID = 1799
  48.998551 1  707             Rx   d 1 7F  Length = 215785 BitCount = 58 ID = 1799
  49.498678 1  607             Tx   d 8 2F 00 30 00 02 00 00 00  Length = 479987 BitCount = 123 ID = 1543
  49.503530 1  587             Rx   d 8 60 00 30 00 00 00 00 00  Length = 475773 BitCount = 123 ID = 1415
  49.505945 1  607             Tx   d 8 2B 00 60 00 C8 19 00 00  Length = 467987 BitCount = 120 ID = 1543
  49.509589 1  587             Rx   d 8 60 00 60 00 00 00 00 00  Length = 471773 BitCount = 122 ID = 1415
  49.511948 1  607             Tx   d 8 2B 3A 60 01 00 80 00 00  Length = 471987 BitCount = 121 ID = 1543
  50.519568 1  587             Rx   d 8 80 3A 60 01 02 10 00 00  Length = 463773 BitCount = 120 ID = 1415
  50.521208 1  87              Rx   d 8 20 A0 00 00 04 00 00 00  Length = 479773 BitCount = 124 ID = 135
  50.522227 1  87              Rx   d 8 00 82 00 27 02 10 00 00  Length = 467773 BitCount = 121 ID = 135
  50.523215 1  607             Tx   d 8 2B 3A 60 01 01 80 00 00  Length = 471987 BitCount = 121 ID = 1543
  51.026591 1  587             Rx   d 8 80 3A 60 01 02 10 00 00  Length = 463773 BitCount = 120 ID = 1415
  51.028346 1  87              Rx   d 8 20 A0 00 00 04 00 00 00  Length = 479773 BitCount = 124 ID = 135
  51.029362 1  87              Rx   d 8 00 82 00 27 02 10 00 00  Length = 467773 BitCount = 121 ID = 135
  51.030354 1  707             Rx   d 1 7F  Length = 215785 BitCount = 58 ID = 1799
  51.499225 1  607             Tx   d 8 2B 3A 60 01 26 02 00 00  Length = 467987 BitCount = 120 ID = 1543
  51.532561 1  587             Rx   d 8 60 3A 60 01 00 00 00 00  Length = 463773 BitCount = 120 ID = 1415
  51.534484 1  607             Tx   d 8 40 42 60 00 00 00 00 00  Length = 479987 BitCount = 123 ID = 1543
  52.037420 1  587             Rx   d 8 4B 42 60 00 26 02 00 00  Length = 455773 BitCount = 118 ID = 1415
  52.039616 1  607             Tx   d 8 2B 3A 60 01 27 02 00 00  Length = 467987 BitCount = 120 ID = 1543
  52.042556 1  587             Rx   d 8 60 3A 60 01 00 00 00 00  Length = 463773 BitCount = 120 ID = 1415
  52.044623 1  607             Tx   d 8 40 42 60 00 00 00 00 00  Length = 479987 BitCount = 123 ID = 1543
  52.547511 1  587             Rx   d 8 4B 42 60 00 27 02 00 00  Length = 455773 BitCount = 118 ID = 1415
  52.549754 1  607             Tx   d 8 2B 3A 60 01 E8 03 00 00  Length = 463987 BitCount = 119 ID = 1543
  52.553566 1  587             Rx   d 8 60 3A 60 01 00 00 00 00  Length = 463773 BitCount = 120 ID = 1415
  52.555765 1  607             Tx   d 8 40 42 60 00 00 00 00 00  Length = 479987 BitCount = 123 ID = 1543
  53.059373 1  587             Rx   d 8 4B 42 60 00 E8 03 00 00  Length = 455773 BitCount = 118 ID = 1415
  53.060893 1  607             Tx   d 8 2B 3A 60 01 D0 07 00 00  Length = 467987 BitCount = 120 ID = 1543
  53.064385 1  587             Rx   d 8 60 3A 60 01 00 00 00 00  Length = 463773 BitCount = 120 ID = 1415
  53.065904 1  707             Rx   d 1 7F  Length = 215785 BitCount = 58 ID = 1799
  53.499769 1  607             Tx   d 8 40 42 60 00 00 00 00 00  Length = 479987 BitCount = 123 ID = 1543
  53.569533 1  587             Rx   d 8 4B 42 60 00 D0 07 00 00  Length = 451777 BitCount = 117 ID = 1415
  53.571029 1  607             Tx   d 8 2B 3A 60 01 3B 0A 00 00  Length = 459987 BitCount = 118 ID = 1543
  53.574513 1  587             Rx   d 8 60 3A 60 01 00 00 00 00  Length = 463773 BitCount = 120 ID = 1415
  53.576040 1  607             Tx   d 8 40 42 60 00 00 00 00 00  Length = 479987 BitCount = 123 ID = 1543
  54.079500 1  587             Rx   d 8 4B 42 60 00 3B 0A 00 00  Length = 451777 BitCount = 117 ID = 1415
  54.081168 1  607             Tx   d 8 2B 3A 60 01 3C 0A 00 00  Length = 467987 BitCount = 120 ID = 1543
  54.084528 1  587             Rx   d 8 60 3A 60 01 00 00 00 00  Length = 463773 BitCount = 120 ID = 1415
  54.086179 1  607             Tx   d 8 40 42 60 00 00 00 00 00  Length = 479987 BitCount = 123 ID = 1543
  54.589611 1  587             Rx   d 8 4B 42 60 00 3C 0A 00 00  Length = 463773 BitCount = 120 ID = 1415
  54.591319 1  607             Tx   d 8 2B 3A 60 01 FE 7F 00 00  Length = 467987 BitCount = 120 ID = 1543
  55.095443 1  587             Rx   d 8 80 3A 60 01 02 20 00 00  Length = 467773 BitCount = 121 ID = 1415
  55.097462 1  87              Rx   d 8 20 A0 00 00 04 00 00 00  Length = 479773 BitCount = 124 ID = 135
  55.098474 1  87              Rx   d 8 00 82 00 27 02 20 00 00  Length = 467773 BitCount = 121 ID = 135
  55.099462 1  707             Rx   d 1 7F  Length = 215785 BitCount = 58 ID = 1799
  55.500316 1  607             Tx   d 8 2B 3A 60 01 FF 7F 00 00  Length = 467987 BitCount = 120 ID = 1543
  55.602484 1  587             Rx   d 8 80 3A 60 01 02 20 00 00  Length = 467773 BitCount = 121 ID = 1415
  55.604599 1  87              Rx   d 8 20 A0 00 00 04 00 00 00  Length = 479773 BitCount = 124 ID = 135
  55.605610 1  87              Rx   d 8 00 82 00 27 02 20 00 00  Length = 467773 BitCount = 121 ID = 135
  55.606598 1  0               Tx   d 2 81 07  Length = 263987 BitCount = 69 ID = 0
  56.821398 1  707             Rx   d 1 00  Length = 223781 BitCount = 60 ID = 1799
  66.015039 1  707             Rx   d 1 7F  Length = 215785 BitCount = 58 ID = 1799
  66.515166 1  607             Tx   d 8 2F 00 30 00 02 00 00 00  Length = 479987 BitCount = 123 ID = 1543
  66.519586 1  587             Rx   d 8 60 00 30 00 00 00 00 00  Length = 475773 BitCount = 123 ID = 1415
  66.521434 1  607             Tx   d 8 2B 00 60 00 C8 19 00 00  Length = 467987 BitCount = 120 ID = 1543
  66.524574 1  587             Rx   d 8 60 00 60 00 00 00 00 00  Length = 471773 BitCount = 122 ID = 1415
  66.526437 1  607             Tx   d 8 2B 3B 60 01 00 80 00 00  Length = 471987 BitCount = 121 ID = 1543
  67.533581 1  587             Rx   d 8 80 3B 60 01 02 10 00 00  Length = 463773 BitCount = 120 ID = 1415
  67.535696 1  87              Rx   d 8 20 A0 00 00 08 00 00 00  Length = 475773 BitCount = 123 ID = 135
  67.536708 1  87              Rx   d 8 00 82 00 27 02 10 00 00  Length = 467773 BitCount = 121 ID = 135
  67.537704 1  607             Tx   d 8 2B 3B 60 01 01 80 00 00  Length = 475987 BitCount = 122 ID = 1543
  68.041392 1  587             Rx   d 8 80 3B 60 01 02 10 00 00  Length = 463773 BitCount = 120 ID = 1415
  68.042835 1  87              Rx   d 8 20 A0 00 00 08 00 00 00  Length = 475773 BitCount = 123 ID = 135
  68.043847 1  87              Rx   d 8 00 82 00 27 02 10 00 00  Length = 467773 BitCount = 121 ID = 135
  68.044843 1  707             Rx   d 1 7F  Length = 215785 BitCount = 58 ID = 1799
  68.515713 1  607             Tx   d 8 2B 3B 60 01 A2 FE 00 00  Length = 463987 BitCount = 119 ID = 1543
  68.547569 1  587             Rx   d 8 60 3B 60 01 00 00 00 00  Length = 463773 BitCount = 120 ID = 1415
  68.549972 1  607             Tx   d 8 40 43 60 00 00 00 00 00  Length = 475987 BitCount = 122 ID = 1543
  69.053564 1  587             Rx   d 8 4B 43 60 00 A2 FE 00 00  Length = 455773 BitCount = 118 ID = 1415
  69.055104 1  607             Tx   d 8 2B 3B 60 01 A3 FE 00 00  Length = 463987 BitCount = 119 ID = 1543
  69.058552 1  587             Rx   d 8 60 3B 60 01 00 00 00 00  Length = 463773 BitCount = 120 ID = 1415
  69.060111 1  607             Tx   d 8 40 43 60 00 00 00 00 00  Length = 475987 BitCount = 122 ID = 1543
  69.563387 1  587             Rx   d 8 4B 43 60 00 A3 FE 00 00  Length = 455773 BitCount = 118 ID = 1415
  69.565243 1  607             Tx   d 8 2B 3B 60 01 00 00 00 00  Length = 479987 BitCount = 123 ID = 1543
  69.568419 1  587             Rx   d 8 60 3B 60 01 00 00 00 00  Length = 463773 BitCount = 120 ID = 1415
  69.570254 1  607             Tx   d 8 40 43 60 00 00 00 00 00  Length = 475987 BitCount = 122 ID = 1543
  70.073570 1  587             Rx   d 8 4B 43 60 00 00 00 00 00  Length = 463773 BitCount = 120 ID = 1415
  70.075390 1  607             Tx   d 8 2B 3B 60 01 E8 03 00 00  Length = 471987 BitCount = 121 ID = 1543
  70.078538 1  587             Rx   d 8 60 3B 60 01 00 00 00 00  Length = 463773 BitCount = 120 ID = 1415
  70.080389 1  707             Rx   d 1 7F  Length = 215785 BitCount = 58 ID = 1799
  70.516257 1  607             Tx   d 8 40 43 60 00 00 00 00 00  Length = 475987 BitCount = 122 ID = 1543
  70.583553 1  587             Rx   d 8 4B 43 60 00 E8 03 00 00  Length = 455773 BitCount = 118 ID = 1415
  70.585520 1  607             Tx   d 8 2B 3B 60 01 8D 06 00 00  Length = 467987 BitCount = 120 ID = 1543
  70.588548 1  587             Rx   d 8 60 3B 60 01 00 00 00 00  Length = 463773 BitCount = 120 ID = 1415
  70.590528 1  607             Tx   d 8 40 43 60 00 00 00 00 00  Length = 475987 BitCount = 122 ID = 1543
  71.093540 1  587             Rx   d 8 4B 43 60 00 8D 06 00 00  Length = 451777 BitCount = 117 ID = 1415
  71.095655 1  607             Tx   d 8 2B 3B 60 01 8E 06 00 00  Length = 463987 BitCount = 119 ID = 1543
  71.099535 1  587             Rx   d 8 60 3B 60 01 00 00 00 00  Length = 463773 BitCount = 120 ID = 1415
  71.101670 1  607             Tx   d 8 40 43 60 00 00 00 00 00  Length = 475987 BitCount = 122 ID = 1543
  71.605466 1  587             Rx   d 8 4B 43 60 00 8E 06 00 00  Length = 455773 BitCount = 118 ID = 1415
  71.607797 1  607             Tx   d 8 2B 3B 60 01 FE 7F 00 00  Length = 467987 BitCount = 120 ID = 1543
  72.112393 1  587             Rx   d 8 80 3B 60 01 02 20 00 00  Length = 459773 BitCount = 119 ID = 1415
  72.113941 1  87              Rx   d 8 20 A0 00 00 08 00 00 00  Length = 475773 BitCount = 123 ID = 135
  72.114957 1  87              Rx   d 8 00 82 00 27 02 20 00 00  Length = 467773 BitCount = 121 ID = 135
  72.115948 1  707             Rx   d 1 7F  Length = 215785 BitCount = 58 ID = 1799
  72.516803 1  607             Tx   d 8 2B 3B 60 01 FF 7F 00 00  Length = 471987 BitCount = 121 ID = 1543
  72.619527 1  587             Rx   d 8 80 3B 60 01 02 20 00 00  Length = 459773 BitCount = 119 ID = 1415
  72.621078 1  87              Rx   d 8 20 A0 00 00 08 00 00 00  Length = 475773 BitCount = 123 ID = 135
  72.622094 1  87              Rx   d 8 00 82 00 27 02 20 00 00  Length = 467773 BitCount = 121 ID = 135
  72.623086 1  707             Rx   d 1 7F  Length = 215785 BitCount = 58 ID = 1799
  74.517347 1  707             Rx   d 1 7F  Length = 215785 BitCount = 58 ID = 1799
  76.517895 1  707             Rx   d 1 7F  Length = 215785 BitCount = 58 ID = 1799
End TriggerBlock
