date Fri Jun 10 09:33:56.763 am 2016
base hex  timestamps absolute
internal events logged
// version 8.5.0
Begin Triggerblock Fri Jun 10 09:33:56.763 am 2016
   0.000000 Start of measurement
   0.001513 1  707             Rx   d 1 05  Length = 215785 BitCount = 58 ID = 1799
   0.002161 1  87              Rx   d 8 00 00 00 01 00 20 00 00  Length = 475773 BitCount = 123 ID = 135
   0.003165 1  87              Rx   d 8 00 00 00 01 00 00 00 00  Length = 479773 BitCount = 124 ID = 135
   0.044203 CAN 1 Status:chip status error active
   1.030825 1  0               Tx   d 2 81 07  Length = 263987 BitCount = 69 ID = 0
  10.324113 1  707             Rx   d 1 00  Length = 223781 BitCount = 60 ID = 1799
  10.824372 1  707             Rx   d 1 7F  Length = 215785 BitCount = 58 ID = 1799
  10.828092 1  0               Tx   d 2 01 07  Length = 259987 BitCount = 68 ID = 0
  10.829608 1  187             Rx   d 8 82 00 8E 06 3C 0A 8E 06  Length = 447777 BitCount = 116 ID = 391
  10.830372 1  287             Rx   d 1 01  Length = 211785 BitCount = 57 ID = 647
  10.831519 1  387             Rx   d 5 D0 07 00 00 00  Length = 355777 BitCount = 93 ID = 903
  10.832375 1  487             Rx   d 1 00  Length = 215785 BitCount = 58 ID = 1159
  10.833375 1  197             Rx   d 1 00  Length = 211785 BitCount = 57 ID = 407
  12.825443 1  707             Rx   d 1 05  Length = 215785 BitCount = 58 ID = 1799
  13.834311 1  607             Tx   d 8 40 3C 60 01 00 00 00 00  Length = 471987 BitCount = 121 ID = 1543
  13.836231 1  587             Rx   d 8 4B 3C 60 01 00 00 00 00  Length = 459773 BitCount = 119 ID = 1415
  13.839295 1  607             Tx   d 8 40 3C 60 02 00 00 00 00  Length = 471987 BitCount = 121 ID = 1543
  13.841235 1  587             Rx   d 8 4B 3C 60 02 00 00 00 00  Length = 459773 BitCount = 119 ID = 1415
  13.845295 1  607             Tx   d 8 40 3D 60 01 00 00 00 00  Length = 471987 BitCount = 121 ID = 1543
  13.847230 1  587             Rx   d 8 4B 3D 60 01 84 03 00 00  Length = 451777 BitCount = 117 ID = 1415
  13.850302 1  607             Tx   d 8 40 3D 60 02 00 00 00 00  Length = 471987 BitCount = 121 ID = 1543
  13.852238 1  587             Rx   d 8 4B 3D 60 02 00 00 00 00  Length = 459773 BitCount = 119 ID = 1415
  13.856306 1  607             Tx   d 8 40 3E 60 01 00 00 00 00  Length = 479987 BitCount = 123 ID = 1543
  13.858238 1  587             Rx   d 8 4B 3E 60 01 08 07 00 00  Length = 455773 BitCount = 118 ID = 1415
  13.861214 1  607             Tx   d 8 40 3E 60 02 00 00 00 00  Length = 475987 BitCount = 122 ID = 1543
  13.863250 1  587             Rx   d 8 4B 3E 60 02 00 00 00 00  Length = 463773 BitCount = 120 ID = 1415
  13.867122 1  607             Tx   d 8 40 3F 60 01 00 00 00 00  Length = 479987 BitCount = 123 ID = 1543
  13.869250 1  587             Rx   d 8 4B 3F 60 01 8C 0A 00 00  Length = 459773 BitCount = 119 ID = 1415
  13.872218 1  607             Tx   d 8 40 3F 60 02 00 00 00 00  Length = 483987 BitCount = 124 ID = 1543
  13.874261 1  587             Rx   d 8 4B 3F 60 02 00 00 00 00  Length = 471773 BitCount = 122 ID = 1415
  14.826517 1  707             Rx   d 1 05  Length = 215785 BitCount = 58 ID = 1799
End TriggerBlock
