date Fri Jun 10 04:04:45.135 pm 2016
base hex  timestamps absolute
internal events logged
// version 8.5.0
Begin Triggerblock Fri Jun 10 04:04:45.135 pm 2016
   0.000000 Start of measurement
   0.001590 1  707             Rx   d 1 7F  Length = 215785 BitCount = 58 ID = 1799
   0.002031 CAN 1 Status:chip status error active
   0.002106 1  87              Rx   d 8 00 00 00 01 00 20 00 00  Length = 475773 BitCount = 123 ID = 135
   0.003110 1  87              Rx   d 8 00 00 00 01 00 00 00 00  Length = 479773 BitCount = 124 ID = 135
   0.960366 1  0               Tx   d 2 81 07  Length = 263987 BitCount = 69 ID = 0
  10.254407 1  707             Rx   d 1 00  Length = 223781 BitCount = 60 ID = 1799
  10.754666 1  707             Rx   d 1 7F  Length = 215785 BitCount = 58 ID = 1799
  10.759454 1  607             Tx   d 8 2F 00 30 00 01 00 00 00  Length = 483987 BitCount = 124 ID = 1543
  10.760934 1  587             Rx   d 8 60 00 30 00 00 00 00 00  Length = 475773 BitCount = 123 ID = 1415
  10.764430 1  607             Tx   d 8 2B 00 60 00 C8 19 00 00  Length = 467987 BitCount = 120 ID = 1543
  10.765934 1  587             Rx   d 8 60 00 60 00 00 00 00 00  Length = 471773 BitCount = 122 ID = 1415
  11.773422 1  607             Tx   d 8 2B 38 60 01 00 80 00 00  Length = 467987 BitCount = 120 ID = 1543
  11.775462 1  587             Rx   d 8 80 38 60 01 02 10 00 00  Length = 463773 BitCount = 120 ID = 1415
  11.776481 1  87              Rx   d 8 20 A0 00 00 01 00 00 00  Length = 479773 BitCount = 124 ID = 135
  11.777469 1  87              Rx   d 8 00 82 00 27 02 10 00 00  Length = 467773 BitCount = 121 ID = 135
  12.281225 1  607             Tx   d 8 2B 38 60 01 01 80 00 00  Length = 471987 BitCount = 121 ID = 1543
  12.282737 1  587             Rx   d 8 80 38 60 01 02 10 00 00  Length = 463773 BitCount = 120 ID = 1415
  12.283753 1  87              Rx   d 8 20 A0 00 00 01 00 00 00  Length = 479773 BitCount = 124 ID = 135
  12.284741 1  87              Rx   d 8 00 82 00 27 02 10 00 00  Length = 467773 BitCount = 121 ID = 135
  12.755740 1  707             Rx   d 1 7F  Length = 215785 BitCount = 58 ID = 1799
  12.787324 1  607             Tx   d 8 2B 38 60 01 7E FF 00 00  Length = 475987 BitCount = 122 ID = 1543
  12.789007 1  587             Rx   d 8 60 38 60 01 00 00 00 00  Length = 463773 BitCount = 120 ID = 1415
  13.292127 1  607             Tx   d 8 40 40 60 00 00 00 00 00  Length = 483987 BitCount = 124 ID = 1543
  13.294275 1  587             Rx   d 8 4B 40 60 00 7E FF 00 00  Length = 459773 BitCount = 119 ID = 1415
  13.297083 1  607             Tx   d 8 2B 38 60 01 7F FF 00 00  Length = 475987 BitCount = 122 ID = 1543
  13.299283 1  587             Rx   d 8 60 38 60 01 00 00 00 00  Length = 463773 BitCount = 120 ID = 1415
  13.803355 1  607             Tx   d 8 40 40 60 00 00 00 00 00  Length = 483987 BitCount = 124 ID = 1543
  13.805555 1  587             Rx   d 8 4B 40 60 00 7F FF 00 00  Length = 463773 BitCount = 120 ID = 1415
  13.809383 1  607             Tx   d 8 2B 38 60 01 00 00 00 00  Length = 475987 BitCount = 122 ID = 1543
  13.811558 1  587             Rx   d 8 60 38 60 01 00 00 00 00  Length = 463773 BitCount = 120 ID = 1415
  14.315318 1  607             Tx   d 8 40 40 60 00 00 00 00 00  Length = 483987 BitCount = 124 ID = 1543
  14.316830 1  587             Rx   d 8 4B 40 60 00 00 00 00 00  Length = 467773 BitCount = 121 ID = 1415
  14.320362 1  607             Tx   d 8 2B 38 60 01 64 00 00 00  Length = 475987 BitCount = 122 ID = 1543
  14.321830 1  587             Rx   d 8 60 38 60 01 00 00 00 00  Length = 463773 BitCount = 120 ID = 1415
  14.756814 1  707             Rx   d 1 7F  Length = 215785 BitCount = 58 ID = 1799
  14.825218 1  607             Tx   d 8 40 40 60 00 00 00 00 00  Length = 483987 BitCount = 124 ID = 1543
  14.827101 1  587             Rx   d 8 4B 40 60 00 64 00 00 00  Length = 463773 BitCount = 120 ID = 1415
  14.830225 1  607             Tx   d 8 2B 38 60 01 81 00 00 00  Length = 471987 BitCount = 121 ID = 1543
  14.832105 1  587             Rx   d 8 60 38 60 01 00 00 00 00  Length = 463773 BitCount = 120 ID = 1415
  15.335181 1  607             Tx   d 8 40 40 60 00 00 00 00 00  Length = 483987 BitCount = 124 ID = 1543
  15.337373 1  587             Rx   d 8 4B 40 60 00 81 00 00 00  Length = 459773 BitCount = 119 ID = 1415
  15.341153 1  607             Tx   d 8 2B 38 60 01 82 00 00 00  Length = 475987 BitCount = 122 ID = 1543
  15.343377 1  587             Rx   d 8 60 38 60 01 00 00 00 00  Length = 463773 BitCount = 120 ID = 1415
  15.847201 1  607             Tx   d 8 40 40 60 00 00 00 00 00  Length = 483987 BitCount = 124 ID = 1543
  15.848652 1  587             Rx   d 8 4B 40 60 00 82 00 00 00  Length = 467773 BitCount = 121 ID = 1415
  16.353236 1  607             Tx   d 8 2B 38 60 01 FE 7F 00 00  Length = 467987 BitCount = 120 ID = 1543
  16.354920 1  587             Rx   d 8 80 38 60 01 02 20 00 00  Length = 463773 BitCount = 120 ID = 1415
  16.355940 1  87              Rx   d 8 20 A0 00 00 01 00 00 00  Length = 479773 BitCount = 124 ID = 135
  16.356928 1  87              Rx   d 8 00 82 00 27 02 20 00 00  Length = 467773 BitCount = 121 ID = 135
  16.757888 1  707             Rx   d 1 7F  Length = 215785 BitCount = 58 ID = 1799
  16.860056 1  607             Tx   d 8 2B 38 60 01 FF 7F 00 00  Length = 467987 BitCount = 120 ID = 1543
  16.862192 1  587             Rx   d 8 80 38 60 01 02 20 00 00  Length = 463773 BitCount = 120 ID = 1415
  16.863211 1  87              Rx   d 8 20 A0 00 00 01 00 00 00  Length = 479773 BitCount = 124 ID = 135
  16.864199 1  87              Rx   d 8 00 82 00 27 02 20 00 00  Length = 467773 BitCount = 121 ID = 135
  18.072391 1  0               Tx   d 2 81 07  Length = 263987 BitCount = 69 ID = 0
  27.417937 1  707             Rx   d 1 00  Length = 223781 BitCount = 60 ID = 1799
  27.918196 1  707             Rx   d 1 7F  Length = 215785 BitCount = 58 ID = 1799
  27.922340 1  607             Tx   d 8 2F 00 30 00 04 00 00 00  Length = 479987 BitCount = 123 ID = 1543
  27.924464 1  587             Rx   d 8 60 00 30 00 00 00 00 00  Length = 475773 BitCount = 123 ID = 1415
  27.928324 1  607             Tx   d 8 2B 00 60 00 C8 19 00 00  Length = 467987 BitCount = 120 ID = 1543
  27.930468 1  587             Rx   d 8 60 00 60 00 00 00 00 00  Length = 471773 BitCount = 122 ID = 1415
  28.938312 1  607             Tx   d 8 2B 39 60 01 00 80 00 00  Length = 471987 BitCount = 121 ID = 1543
  28.939999 1  587             Rx   d 8 80 39 60 01 02 10 00 00  Length = 463773 BitCount = 120 ID = 1415
  28.941015 1  87              Rx   d 8 20 A0 00 00 02 00 00 00  Length = 479773 BitCount = 124 ID = 135
  28.942003 1  87              Rx   d 8 00 82 00 27 02 10 00 00  Length = 467773 BitCount = 121 ID = 135
  29.445119 1  607             Tx   d 8 2B 39 60 01 01 80 00 00  Length = 467987 BitCount = 120 ID = 1543
  29.447271 1  587             Rx   d 8 80 39 60 01 02 10 00 00  Length = 463773 BitCount = 120 ID = 1415
  29.448287 1  87              Rx   d 8 20 A0 00 00 02 00 00 00  Length = 479773 BitCount = 124 ID = 135
  29.449275 1  87              Rx   d 8 00 82 00 27 02 10 00 00  Length = 467773 BitCount = 121 ID = 135
  29.919274 1  707             Rx   d 1 7F  Length = 215785 BitCount = 58 ID = 1799
  29.952238 1  607             Tx   d 8 2B 39 60 01 A2 FE 00 00  Length = 471987 BitCount = 121 ID = 1543
  29.954541 1  587             Rx   d 8 60 39 60 01 00 00 00 00  Length = 463773 BitCount = 120 ID = 1415
  30.458113 1  607             Tx   d 8 40 41 60 00 00 00 00 00  Length = 479987 BitCount = 123 ID = 1543
  30.459809 1  587             Rx   d 8 4B 41 60 00 A2 FE 00 00  Length = 459773 BitCount = 119 ID = 1415
  30.463017 1  607             Tx   d 8 2B 39 60 01 A3 FE 00 00  Length = 463987 BitCount = 119 ID = 1543
  30.464817 1  587             Rx   d 8 60 39 60 01 00 00 00 00  Length = 463773 BitCount = 120 ID = 1415
  30.968281 1  607             Tx   d 8 40 41 60 00 00 00 00 00  Length = 479987 BitCount = 123 ID = 1543
  30.970077 1  587             Rx   d 8 4B 41 60 00 A3 FE 00 00  Length = 455773 BitCount = 118 ID = 1415
  30.973269 1  607             Tx   d 8 2B 39 60 01 00 00 00 00  Length = 471987 BitCount = 121 ID = 1543
  30.975089 1  587             Rx   d 8 60 39 60 01 00 00 00 00  Length = 463773 BitCount = 120 ID = 1415
  31.478041 1  607             Tx   d 8 40 41 60 00 00 00 00 00  Length = 479987 BitCount = 123 ID = 1543
  31.480368 1  587             Rx   d 8 4B 41 60 00 00 00 00 00  Length = 471773 BitCount = 122 ID = 1415
  31.484032 1  607             Tx   d 8 2B 39 60 01 E8 03 00 00  Length = 463987 BitCount = 119 ID = 1543
  31.486364 1  587             Rx   d 8 60 39 60 01 00 00 00 00  Length = 463773 BitCount = 120 ID = 1415
  31.920348 1  707             Rx   d 1 7F  Length = 215785 BitCount = 58 ID = 1799
  31.990084 1  607             Tx   d 8 40 41 60 00 00 00 00 00  Length = 479987 BitCount = 123 ID = 1543
  31.991628 1  587             Rx   d 8 4B 41 60 00 E8 03 00 00  Length = 455773 BitCount = 118 ID = 1415
  31.995124 1  607             Tx   d 8 2B 39 60 01 8D 06 00 00  Length = 463987 BitCount = 119 ID = 1543
  31.996639 1  587             Rx   d 8 60 39 60 01 00 00 00 00  Length = 463773 BitCount = 120 ID = 1415
  32.500223 1  607             Tx   d 8 40 41 60 00 00 00 00 00  Length = 479987 BitCount = 123 ID = 1543
  32.501899 1  587             Rx   d 8 4B 41 60 00 8D 06 00 00  Length = 455773 BitCount = 118 ID = 1415
  32.505223 1  607             Tx   d 8 2B 39 60 01 8E 06 00 00  Length = 467987 BitCount = 120 ID = 1543
  32.506911 1  587             Rx   d 8 60 39 60 01 00 00 00 00  Length = 463773 BitCount = 120 ID = 1415
  33.010147 1  607             Tx   d 8 40 41 60 00 00 00 00 00  Length = 479987 BitCount = 123 ID = 1543
  33.012175 1  587             Rx   d 8 4B 41 60 00 8E 06 00 00  Length = 455773 BitCount = 118 ID = 1415
  33.516087 1  607             Tx   d 8 2B 39 60 01 FE 7F 00 00  Length = 467987 BitCount = 120 ID = 1543
  33.518450 1  587             Rx   d 8 80 39 60 01 02 20 00 00  Length = 459773 BitCount = 119 ID = 1415
  33.519470 1  87              Rx   d 8 20 A0 00 00 02 00 00 00  Length = 479773 BitCount = 124 ID = 135
  33.520462 1  87              Rx   d 8 00 82 00 27 02 20 00 00  Length = 467773 BitCount = 121 ID = 135
  33.921418 1  707             Rx   d 1 7F  Length = 215785 BitCount = 58 ID = 1799
  34.024242 1  607             Tx   d 8 2B 39 60 01 FF 7F 00 00  Length = 467987 BitCount = 120 ID = 1543
  34.025722 1  587             Rx   d 8 80 39 60 01 02 20 00 00  Length = 459773 BitCount = 119 ID = 1415
  34.026742 1  87              Rx   d 8 20 A0 00 00 02 00 00 00  Length = 479773 BitCount = 124 ID = 135
  34.027730 1  87              Rx   d 8 00 82 00 27 02 20 00 00  Length = 467773 BitCount = 121 ID = 135
  35.244230 1  0               Tx   d 2 81 07  Length = 263987 BitCount = 69 ID = 0
  44.538048 1  707             Rx   d 1 00  Length = 223781 BitCount = 60 ID = 1799
  45.038307 1  707             Rx   d 1 7F  Length = 215785 BitCount = 58 ID = 1799
  45.042967 1  607             Tx   d 8 2F 00 30 00 04 00 00 00  Length = 479987 BitCount = 123 ID = 1543
  45.044575 1  587             Rx   d 8 60 00 30 00 00 00 00 00  Length = 475773 BitCount = 123 ID = 1415
  45.048211 1  607             Tx   d 8 2B 00 60 00 C8 19 00 00  Length = 467987 BitCount = 120 ID = 1543
  45.050579 1  587             Rx   d 8 60 00 60 00 00 00 00 00  Length = 471773 BitCount = 122 ID = 1415
  46.058159 1  607             Tx   d 8 2B 3A 60 01 00 80 00 00  Length = 471987 BitCount = 121 ID = 1543
  46.060106 1  587             Rx   d 8 80 3A 60 01 02 10 00 00  Length = 463773 BitCount = 120 ID = 1415
  46.061122 1  87              Rx   d 8 20 A0 00 00 04 00 00 00  Length = 479773 BitCount = 124 ID = 135
  46.062110 1  87              Rx   d 8 00 82 00 27 02 10 00 00  Length = 467773 BitCount = 121 ID = 135
  46.565150 1  607             Tx   d 8 2B 3A 60 01 01 80 00 00  Length = 471987 BitCount = 121 ID = 1543
  46.567382 1  587             Rx   d 8 80 3A 60 01 02 10 00 00  Length = 463773 BitCount = 120 ID = 1415
  46.568394 1  87              Rx   d 8 20 A0 00 00 04 00 00 00  Length = 479773 BitCount = 124 ID = 135
  46.569382 1  87              Rx   d 8 00 82 00 27 02 10 00 00  Length = 467773 BitCount = 121 ID = 135
  47.039381 1  707             Rx   d 1 7F  Length = 215785 BitCount = 58 ID = 1799
  47.072149 1  607             Tx   d 8 2B 3A 60 01 26 02 00 00  Length = 467987 BitCount = 120 ID = 1543
  47.073648 1  587             Rx   d 8 60 3A 60 01 00 00 00 00  Length = 463773 BitCount = 120 ID = 1415
  47.577164 1  607             Tx   d 8 40 42 60 00 00 00 00 00  Length = 479987 BitCount = 123 ID = 1543
  47.578912 1  587             Rx   d 8 4B 42 60 00 26 02 00 00  Length = 455773 BitCount = 118 ID = 1415
  47.582144 1  607             Tx   d 8 2B 3A 60 01 27 02 00 00  Length = 467987 BitCount = 120 ID = 1543
  47.583924 1  587             Rx   d 8 60 3A 60 01 00 00 00 00  Length = 463773 BitCount = 120 ID = 1415
  48.087156 1  607             Tx   d 8 40 42 60 00 00 00 00 00  Length = 479987 BitCount = 123 ID = 1543
  48.089184 1  587             Rx   d 8 4B 42 60 00 27 02 00 00  Length = 455773 BitCount = 118 ID = 1415
  48.092104 1  607             Tx   d 8 2B 3A 60 01 E8 03 00 00  Length = 463987 BitCount = 119 ID = 1543
  48.094200 1  587             Rx   d 8 60 3A 60 01 00 00 00 00  Length = 463773 BitCount = 120 ID = 1415
  48.597128 1  607             Tx   d 8 40 42 60 00 00 00 00 00  Length = 479987 BitCount = 123 ID = 1543
  48.599459 1  587             Rx   d 8 4B 42 60 00 E8 03 00 00  Length = 455773 BitCount = 118 ID = 1415
  48.603131 1  607             Tx   d 8 2B 3A 60 01 D0 07 00 00  Length = 467987 BitCount = 120 ID = 1543
  48.605471 1  587             Rx   d 8 60 3A 60 01 00 00 00 00  Length = 463773 BitCount = 120 ID = 1415
  49.040455 1  707             Rx   d 1 7F  Length = 215785 BitCount = 58 ID = 1799
  49.109083 1  607             Tx   d 8 40 42 60 00 00 00 00 00  Length = 479987 BitCount = 123 ID = 1543
  49.110731 1  587             Rx   d 8 4B 42 60 00 D0 07 00 00  Length = 451777 BitCount = 117 ID = 1415
  49.114063 1  607             Tx   d 8 2B 3A 60 01 3B 0A 00 00  Length = 459987 BitCount = 118 ID = 1543
  49.115746 1  587             Rx   d 8 60 3A 60 01 00 00 00 00  Length = 463773 BitCount = 120 ID = 1415
  49.619114 1  607             Tx   d 8 40 42 60 00 00 00 00 00  Length = 479987 BitCount = 123 ID = 1543
  49.621002 1  587             Rx   d 8 4B 42 60 00 3B 0A 00 00  Length = 451777 BitCount = 117 ID = 1415
  49.624102 1  607             Tx   d 8 2B 3A 60 01 3C 0A 00 00  Length = 467987 BitCount = 120 ID = 1543
  49.626018 1  587             Rx   d 8 60 3A 60 01 00 00 00 00  Length = 463773 BitCount = 120 ID = 1415
  50.129114 1  607             Tx   d 8 40 42 60 00 00 00 00 00  Length = 479987 BitCount = 123 ID = 1543
  50.131290 1  587             Rx   d 8 4B 42 60 00 3C 0A 00 00  Length = 463773 BitCount = 120 ID = 1415
  50.636222 1  607             Tx   d 8 2B 3A 60 01 FE 7F 00 00  Length = 467987 BitCount = 120 ID = 1543
  50.638569 1  587             Rx   d 8 80 3A 60 01 02 20 00 00  Length = 467773 BitCount = 121 ID = 1415
  50.639581 1  87              Rx   d 8 20 A0 00 00 04 00 00 00  Length = 479773 BitCount = 124 ID = 135
  50.640569 1  87              Rx   d 8 00 82 00 27 02 20 00 00  Length = 467773 BitCount = 121 ID = 135
  51.041529 1  707             Rx   d 1 7F  Length = 215785 BitCount = 58 ID = 1799
  51.144157 1  607             Tx   d 8 2B 3A 60 01 FF 7F 00 00  Length = 467987 BitCount = 120 ID = 1543
  51.145837 1  587             Rx   d 8 80 3A 60 01 02 20 00 00  Length = 467773 BitCount = 121 ID = 1415
  51.146849 1  87              Rx   d 8 20 A0 00 00 04 00 00 00  Length = 479773 BitCount = 124 ID = 135
  51.147841 1  87              Rx   d 8 00 82 00 27 02 20 00 00  Length = 467773 BitCount = 121 ID = 135
  52.364665 1  0               Tx   d 2 81 07  Length = 263987 BitCount = 69 ID = 0
  61.658540 1  707             Rx   d 1 00  Length = 223781 BitCount = 60 ID = 1799
  62.158799 1  707             Rx   d 1 7F  Length = 215785 BitCount = 58 ID = 1799
  62.163391 1  607             Tx   d 8 2F 00 30 00 04 00 00 00  Length = 479987 BitCount = 123 ID = 1543
  62.165067 1  587             Rx   d 8 60 00 30 00 00 00 00 00  Length = 475773 BitCount = 123 ID = 1415
  62.168375 1  607             Tx   d 8 2B 00 60 00 C8 19 00 00  Length = 467987 BitCount = 120 ID = 1543
  62.170071 1  587             Rx   d 8 60 00 60 00 00 00 00 00  Length = 471773 BitCount = 122 ID = 1415
  63.177351 1  607             Tx   d 8 2B 3B 60 01 00 80 00 00  Length = 471987 BitCount = 121 ID = 1543
  63.179598 1  587             Rx   d 8 80 3B 60 01 02 10 00 00  Length = 463773 BitCount = 120 ID = 1415
  63.180610 1  87              Rx   d 8 20 A0 00 00 08 00 00 00  Length = 475773 BitCount = 123 ID = 135
  63.181602 1  87              Rx   d 8 00 82 00 27 02 10 00 00  Length = 467773 BitCount = 121 ID = 135
  63.685042 1  607             Tx   d 8 2B 3B 60 01 01 80 00 00  Length = 475987 BitCount = 122 ID = 1543
  63.686870 1  587             Rx   d 8 80 3B 60 01 02 10 00 00  Length = 463773 BitCount = 120 ID = 1415
  63.687882 1  87              Rx   d 8 20 A0 00 00 08 00 00 00  Length = 475773 BitCount = 123 ID = 135
  63.688874 1  87              Rx   d 8 00 82 00 27 02 10 00 00  Length = 467773 BitCount = 121 ID = 135
  64.159873 1  707             Rx   d 1 7F  Length = 215785 BitCount = 58 ID = 1799
  64.191445 1  607             Tx   d 8 2B 3B 60 01 A2 FE 00 00  Length = 463987 BitCount = 119 ID = 1543
  64.193140 1  587             Rx   d 8 60 3B 60 01 00 00 00 00  Length = 463773 BitCount = 120 ID = 1415
  64.696452 1  607             Tx   d 8 40 43 60 00 00 00 00 00  Length = 475987 BitCount = 122 ID = 1543
  64.698404 1  587             Rx   d 8 4B 43 60 00 A2 FE 00 00  Length = 455773 BitCount = 118 ID = 1415
  64.702292 1  607             Tx   d 8 2B 3B 60 01 A3 FE 00 00  Length = 463987 BitCount = 119 ID = 1543
  64.704416 1  587             Rx   d 8 60 3B 60 01 00 00 00 00  Length = 463773 BitCount = 120 ID = 1415
  65.208436 1  607             Tx   d 8 40 43 60 00 00 00 00 00  Length = 475987 BitCount = 122 ID = 1543
  65.210680 1  587             Rx   d 8 4B 43 60 00 A3 FE 00 00  Length = 455773 BitCount = 118 ID = 1415
  65.214420 1  607             Tx   d 8 2B 3B 60 01 00 00 00 00  Length = 479987 BitCount = 123 ID = 1543
  65.216691 1  587             Rx   d 8 60 3B 60 01 00 00 00 00  Length = 463773 BitCount = 120 ID = 1415
  65.720135 1  607             Tx   d 8 40 43 60 00 00 00 00 00  Length = 475987 BitCount = 122 ID = 1543
  65.721959 1  587             Rx   d 8 4B 43 60 00 00 00 00 00  Length = 463773 BitCount = 120 ID = 1415
  65.725143 1  607             Tx   d 8 2B 3B 60 01 E8 03 00 00  Length = 471987 BitCount = 121 ID = 1543
  65.726963 1  587             Rx   d 8 60 3B 60 01 00 00 00 00  Length = 463773 BitCount = 120 ID = 1415
  66.160946 1  707             Rx   d 1 7F  Length = 215785 BitCount = 58 ID = 1799
  66.230286 1  607             Tx   d 8 40 43 60 00 00 00 00 00  Length = 475987 BitCount = 122 ID = 1543
  66.232226 1  587             Rx   d 8 4B 43 60 00 E8 03 00 00  Length = 455773 BitCount = 118 ID = 1415
  66.235258 1  607             Tx   d 8 2B 3B 60 01 8D 06 00 00  Length = 467987 BitCount = 120 ID = 1543
  66.237238 1  587             Rx   d 8 60 3B 60 01 00 00 00 00  Length = 463773 BitCount = 120 ID = 1415
  66.740110 1  607             Tx   d 8 40 43 60 00 00 00 00 00  Length = 475987 BitCount = 122 ID = 1543
  66.742498 1  587             Rx   d 8 4B 43 60 00 8D 06 00 00  Length = 451777 BitCount = 117 ID = 1415
  66.746074 1  607             Tx   d 8 2B 3B 60 01 8E 06 00 00  Length = 463987 BitCount = 119 ID = 1543
  66.747514 1  587             Rx   d 8 60 3B 60 01 00 00 00 00  Length = 463773 BitCount = 120 ID = 1415
  67.251194 1  607             Tx   d 8 40 43 60 00 00 00 00 00  Length = 475987 BitCount = 122 ID = 1543
  67.252773 1  587             Rx   d 8 4B 43 60 00 8E 06 00 00  Length = 455773 BitCount = 118 ID = 1415
  67.757381 1  607             Tx   d 8 2B 3B 60 01 FE 7F 00 00  Length = 467987 BitCount = 120 ID = 1543
  67.759049 1  587             Rx   d 8 80 3B 60 01 02 20 00 00  Length = 459773 BitCount = 119 ID = 1415
  67.760069 1  87              Rx   d 8 20 A0 00 00 08 00 00 00  Length = 475773 BitCount = 123 ID = 135
  67.761061 1  87              Rx   d 8 00 82 00 27 02 20 00 00  Length = 467773 BitCount = 121 ID = 135
  68.162021 1  707             Rx   d 1 7F  Length = 215785 BitCount = 58 ID = 1799
  68.264169 1  607             Tx   d 8 2B 3B 60 01 FF 7F 00 00  Length = 471987 BitCount = 121 ID = 1543
  68.266321 1  587             Rx   d 8 80 3B 60 01 02 20 00 00  Length = 459773 BitCount = 119 ID = 1415
  68.267337 1  87              Rx   d 8 20 A0 00 00 08 00 00 00  Length = 475773 BitCount = 123 ID = 135
  68.268332 1  87              Rx   d 8 00 82 00 27 02 20 00 00  Length = 467773 BitCount = 121 ID = 135
  70.163095 1  707             Rx   d 1 7F  Length = 215785 BitCount = 58 ID = 1799
  72.164167 1  707             Rx   d 1 7F  Length = 215785 BitCount = 58 ID = 1799
  74.165240 1  707             Rx   d 1 7F  Length = 215785 BitCount = 58 ID = 1799
  76.166316 1  707             Rx   d 1 7F  Length = 215785 BitCount = 58 ID = 1799
  78.167388 1  707             Rx   d 1 7F  Length = 215785 BitCount = 58 ID = 1799
End TriggerBlock
