date Thu Jun 9 08:42:26.267 am 2016
base hex  timestamps absolute
internal events logged
// version 8.5.0
Begin Triggerblock Thu Jun 9 08:42:26.267 am 2016
   0.000000 Start of measurement
   0.001594 1  707             Rx   d 1 00  Length = 223781 BitCount = 60 ID = 1799
   0.002906 1  87              Rx   d 8 00 00 00 01 00 20 00 00  Length = 475773 BitCount = 123 ID = 135
   0.003127 CAN 1 Status:chip status error active
   0.003910 1  87              Rx   d 8 00 00 00 01 00 00 00 00  Length = 479773 BitCount = 124 ID = 135
   1.692105 1  707             Rx   d 1 7F  Length = 215785 BitCount = 58 ID = 1799
   2.434093 1  0               Tx   d 2 81 07  Length = 263987 BitCount = 69 ID = 0
  11.626971 1  707             Rx   d 1 00  Length = 223781 BitCount = 60 ID = 1799
  12.127098 1  707             Rx   d 1 7F  Length = 215785 BitCount = 58 ID = 1799
  13.134866 1  607             Tx   d 8 2F 00 22 00 00 00 00 00  Length = 479987 BitCount = 123 ID = 1543
  13.136637 1  587             Rx   d 8 60 00 22 00 00 00 00 00  Length = 475773 BitCount = 123 ID = 1415
  13.339773 1  607             Tx   d 8 40 00 21 00 00 00 00 00  Length = 479987 BitCount = 123 ID = 1543
  13.341685 1  587             Rx   d 8 4F 00 21 00 00 00 00 00  Length = 467773 BitCount = 121 ID = 1415
  14.127643 1  707             Rx   d 1 7F  Length = 215785 BitCount = 58 ID = 1799
  14.670691 1  607             Tx   d 8 2F 00 22 00 01 00 00 00  Length = 479987 BitCount = 123 ID = 1543
  14.673054 1  587             Rx   d 8 60 00 22 00 00 00 00 00  Length = 475773 BitCount = 123 ID = 1415
  14.876558 1  607             Tx   d 8 40 00 21 00 00 00 00 00  Length = 479987 BitCount = 123 ID = 1543
  19.381328 1  587             Rx   d 8 4F 00 21 00 02 00 00 00  Length = 463773 BitCount = 120 ID = 1415
  19.382336 1  87              Rx   d 8 00 52 00 00 00 00 00 00  Length = 471773 BitCount = 122 ID = 135
  19.383075 1  707             Rx   d 1 7F  Length = 215785 BitCount = 58 ID = 1799
  19.384731 1  607             Tx   d 8 2F 00 22 00 02 00 00 00  Length = 479987 BitCount = 123 ID = 1543
  19.386323 1  587             Rx   d 8 80 00 22 00 31 00 09 06  Length = 459773 BitCount = 119 ID = 1415
  19.387334 1  87              Rx   d 8 00 82 00 27 31 00 09 06  Length = 467773 BitCount = 121 ID = 135
  19.589954 1  607             Tx   d 8 40 00 21 00 00 00 00 00  Length = 479987 BitCount = 123 ID = 1543
  19.592386 1  587             Rx   d 8 4F 00 21 00 02 00 00 00  Length = 463773 BitCount = 120 ID = 1415
  19.595782 1  607             Tx   d 8 2F 00 22 00 05 00 00 00  Length = 475987 BitCount = 122 ID = 1543
  19.597381 1  587             Rx   d 8 80 00 22 00 31 00 09 06  Length = 459773 BitCount = 119 ID = 1415
  19.598389 1  87              Rx   d 8 00 82 00 27 31 00 09 06  Length = 467773 BitCount = 121 ID = 135
  19.800845 1  607             Tx   d 8 40 00 21 00 00 00 00 00  Length = 479987 BitCount = 123 ID = 1543
  19.802440 1  587             Rx   d 8 4F 00 21 00 02 00 00 00  Length = 463773 BitCount = 120 ID = 1415
  19.805832 1  607             Tx   d 8 2F 00 22 00 09 00 00 00  Length = 471987 BitCount = 121 ID = 1543
  19.807440 1  587             Rx   d 8 80 00 22 00 31 00 09 06  Length = 459773 BitCount = 119 ID = 1415
  19.808447 1  87              Rx   d 8 00 82 00 27 31 00 09 06  Length = 467773 BitCount = 121 ID = 135
  20.010955 1  607             Tx   d 8 40 00 21 00 00 00 00 00  Length = 479987 BitCount = 123 ID = 1543
  20.012499 1  587             Rx   d 8 4F 00 21 00 02 00 00 00  Length = 463773 BitCount = 120 ID = 1415
  20.015787 1  607             Tx   d 8 2F 00 22 00 01 00 00 00  Length = 479987 BitCount = 123 ID = 1543
  20.017510 1  587             Rx   d 8 60 00 22 00 00 00 00 00  Length = 475773 BitCount = 123 ID = 1415
  20.220662 1  607             Tx   d 8 40 00 21 00 00 00 00 00  Length = 479987 BitCount = 123 ID = 1543
  24.818811 1  587             Rx   d 8 4F 00 21 00 01 00 00 00  Length = 463773 BitCount = 120 ID = 1415
  24.819559 1  707             Rx   d 1 7F  Length = 215785 BitCount = 58 ID = 1799
  24.821711 1  607             Tx   d 8 2F 00 22 00 03 00 00 00  Length = 475987 BitCount = 122 ID = 1543
  24.823806 1  587             Rx   d 8 80 00 22 00 31 00 09 06  Length = 459773 BitCount = 119 ID = 1415
  24.824814 1  87              Rx   d 8 00 82 00 27 31 00 09 06  Length = 467773 BitCount = 121 ID = 135
  25.026814 1  607             Tx   d 8 40 00 21 00 00 00 00 00  Length = 479987 BitCount = 123 ID = 1543
  25.028865 1  587             Rx   d 8 4F 00 21 00 01 00 00 00  Length = 463773 BitCount = 120 ID = 1415
  25.032797 1  607             Tx   d 8 2F 00 22 00 FE 00 00 00  Length = 475987 BitCount = 122 ID = 1543
  25.034864 1  587             Rx   d 8 80 00 22 00 31 00 09 06  Length = 459773 BitCount = 119 ID = 1415
  25.035872 1  87              Rx   d 8 00 82 00 27 31 00 09 06  Length = 467773 BitCount = 121 ID = 135
  25.238652 1  607             Tx   d 8 40 00 21 00 00 00 00 00  Length = 479987 BitCount = 123 ID = 1543
  25.240923 1  587             Rx   d 8 4F 00 21 00 01 00 00 00  Length = 463773 BitCount = 120 ID = 1415
  25.244687 1  607             Tx   d 8 2F 00 22 00 FF 00 00 00  Length = 475987 BitCount = 122 ID = 1543
  25.246922 1  587             Rx   d 8 80 00 22 00 31 00 09 06  Length = 459773 BitCount = 119 ID = 1415
  25.247930 1  87              Rx   d 8 00 82 00 27 31 00 09 06  Length = 467773 BitCount = 121 ID = 135
  25.450722 1  607             Tx   d 8 40 00 21 00 00 00 00 00  Length = 479987 BitCount = 123 ID = 1543
  25.452981 1  587             Rx   d 8 4F 00 21 00 01 00 00 00  Length = 463773 BitCount = 120 ID = 1415
  26.819103 1  707             Rx   d 1 7F  Length = 215785 BitCount = 58 ID = 1799
End TriggerBlock
