date Thu Jun 9 09:34:01.876 am 2016
base hex  timestamps absolute
internal events logged
// version 8.5.0
Begin Triggerblock Thu Jun 9 09:34:01.876 am 2016
   0.000000 Start of measurement
   0.001712 1  707             Rx   d 1 7F  Length = 215785 BitCount = 58 ID = 1799
   0.002240 1  87              Rx   d 8 00 00 00 01 00 20 00 00  Length = 475773 BitCount = 123 ID = 135
   0.003244 1  87              Rx   d 8 00 00 00 01 00 00 00 00  Length = 479773 BitCount = 124 ID = 135
   0.015279 CAN 1 Status:chip status error active
   1.543397 1  707             Rx   d 1 7F  Length = 215785 BitCount = 58 ID = 1799
   3.543942 1  707             Rx   d 1 7F  Length = 215785 BitCount = 58 ID = 1799
   4.632382 1  0               Tx   d 2 81 07  Length = 263987 BitCount = 69 ID = 0
  13.826077 1  707             Rx   d 1 00  Length = 223781 BitCount = 60 ID = 1799
  14.326204 1  707             Rx   d 1 7F  Length = 215785 BitCount = 58 ID = 1799
  14.331172 1  607             Tx   d 8 40 12 30 01 00 00 00 00  Length = 475987 BitCount = 122 ID = 1543
  14.333456 1  587             Rx   d 8 4B 12 30 01 00 00 00 00  Length = 459773 BitCount = 119 ID = 1415
  14.337172 1  607             Tx   d 8 40 12 30 02 00 00 00 00  Length = 479987 BitCount = 123 ID = 1543
  14.339451 1  587             Rx   d 8 4B 12 30 02 46 00 00 00  Length = 455773 BitCount = 118 ID = 1415
  14.343035 1  607             Tx   d 8 40 12 30 03 00 00 00 00  Length = 471987 BitCount = 121 ID = 1543
  14.344458 1  587             Rx   d 8 4B 12 30 03 DE FE 00 00  Length = 459773 BitCount = 119 ID = 1415
  15.353262 1  607             Tx   d 8 2B 12 30 01 47 F4 00 00  Length = 463987 BitCount = 119 ID = 1543
  15.354730 1  587             Rx   d 8 80 12 30 01 32 00 09 06  Length = 455773 BitCount = 118 ID = 1415
  15.355734 1  87              Rx   d 8 00 82 00 27 32 00 09 06  Length = 459773 BitCount = 119 ID = 135
  15.858002 1  607             Tx   d 8 40 12 30 01 00 00 00 00  Length = 475987 BitCount = 122 ID = 1543
  15.859869 1  587             Rx   d 8 4B 12 30 01 00 00 00 00  Length = 459773 BitCount = 119 ID = 1415
  15.862949 1  607             Tx   d 8 2B 12 30 01 48 F4 00 00  Length = 459987 BitCount = 118 ID = 1543
  15.864876 1  587             Rx   d 8 60 12 30 01 00 00 00 00  Length = 463773 BitCount = 120 ID = 1415
  16.326750 1  707             Rx   d 1 7F  Length = 215785 BitCount = 58 ID = 1799
  16.368382 1  607             Tx   d 8 40 12 30 01 00 00 00 00  Length = 475987 BitCount = 122 ID = 1543
  16.370002 1  587             Rx   d 8 4B 12 30 01 48 F4 00 00  Length = 451777 BitCount = 117 ID = 1415
  16.373354 1  607             Tx   d 8 2B 12 30 01 24 FA 00 00  Length = 463987 BitCount = 119 ID = 1543
  16.375013 1  587             Rx   d 8 60 12 30 01 00 00 00 00  Length = 463773 BitCount = 120 ID = 1415
  16.878113 1  607             Tx   d 8 40 12 30 01 00 00 00 00  Length = 475987 BitCount = 122 ID = 1543
  17.504311 1  587             Rx   d 8 4B 12 30 01 24 FA 00 00  Length = 451777 BitCount = 117 ID = 1415
  17.508043 1  607             Tx   d 8 2B 12 30 01 00 00 00 00  Length = 475987 BitCount = 122 ID = 1543
  17.510326 1  587             Rx   d 8 60 12 30 01 00 00 00 00  Length = 463773 BitCount = 120 ID = 1415
  18.014050 1  607             Tx   d 8 40 12 30 01 00 00 00 00  Length = 475987 BitCount = 122 ID = 1543
  18.016457 1  587             Rx   d 8 4B 12 30 01 00 00 00 00  Length = 459773 BitCount = 119 ID = 1415
  18.020037 1  607             Tx   d 8 2B 12 30 01 DC 05 00 00  Length = 463987 BitCount = 119 ID = 1543
  18.022464 1  587             Rx   d 8 60 12 30 01 00 00 00 00  Length = 463773 BitCount = 120 ID = 1415
  18.327296 1  707             Rx   d 1 7F  Length = 215785 BitCount = 58 ID = 1799
  18.526020 1  607             Tx   d 8 40 12 30 01 00 00 00 00  Length = 475987 BitCount = 122 ID = 1543
  18.527592 1  587             Rx   d 8 4B 12 30 01 DC 05 00 00  Length = 451777 BitCount = 117 ID = 1415
  18.531028 1  607             Tx   d 8 2B 12 30 01 B8 0B 00 00  Length = 467987 BitCount = 120 ID = 1543
  18.532603 1  587             Rx   d 8 60 12 30 01 00 00 00 00  Length = 463773 BitCount = 120 ID = 1415
  19.035923 1  607             Tx   d 8 40 12 30 01 00 00 00 00  Length = 475987 BitCount = 122 ID = 1543
  19.037731 1  587             Rx   d 8 4B 12 30 01 B8 0B 00 00  Length = 451777 BitCount = 117 ID = 1415
  19.040899 1  607             Tx   d 8 2B 12 30 01 B9 0B 00 00  Length = 463987 BitCount = 119 ID = 1543
  19.042734 1  587             Rx   d 8 80 12 30 01 31 00 09 06  Length = 455773 BitCount = 118 ID = 1415
  19.043746 1  87              Rx   d 8 00 82 00 27 31 00 09 06  Length = 467773 BitCount = 121 ID = 135
  19.545938 1  607             Tx   d 8 40 12 30 01 00 00 00 00  Length = 475987 BitCount = 122 ID = 1543
  19.547869 1  587             Rx   d 8 4B 12 30 01 B8 0B 00 00  Length = 451777 BitCount = 117 ID = 1415
  19.553041 1  607             Tx   d 8 2B 12 30 02 47 F4 00 00  Length = 467987 BitCount = 120 ID = 1543
  19.554880 1  587             Rx   d 8 80 12 30 02 32 00 09 06  Length = 459773 BitCount = 119 ID = 1415
  19.555880 1  87              Rx   d 8 00 82 00 27 32 00 09 06  Length = 459773 BitCount = 119 ID = 135
  20.058048 1  607             Tx   d 8 40 12 30 02 00 00 00 00  Length = 479987 BitCount = 123 ID = 1543
  20.060011 1  587             Rx   d 8 4B 12 30 02 46 00 00 00  Length = 455773 BitCount = 118 ID = 1415
  20.062991 1  607             Tx   d 8 2B 12 30 02 48 F4 00 00  Length = 459987 BitCount = 118 ID = 1543
  20.065023 1  587             Rx   d 8 60 12 30 02 00 00 00 00  Length = 463773 BitCount = 120 ID = 1415
  20.327843 1  707             Rx   d 1 7F  Length = 215785 BitCount = 58 ID = 1799
  20.568243 1  607             Tx   d 8 40 12 30 02 00 00 00 00  Length = 479987 BitCount = 123 ID = 1543
  20.570151 1  587             Rx   d 8 4B 12 30 02 48 F4 00 00  Length = 455773 BitCount = 118 ID = 1415
  20.574083 1  607             Tx   d 8 2B 12 30 02 24 FA 00 00  Length = 463987 BitCount = 119 ID = 1543
  20.576162 1  587             Rx   d 8 60 12 30 02 00 00 00 00  Length = 463773 BitCount = 120 ID = 1415
  21.080158 1  607             Tx   d 8 40 12 30 02 00 00 00 00  Length = 479987 BitCount = 123 ID = 1543
  21.705456 1  587             Rx   d 8 4B 12 30 02 24 FA 00 00  Length = 451777 BitCount = 117 ID = 1415
  21.709056 1  607             Tx   d 8 2B 12 30 02 00 00 00 00  Length = 471987 BitCount = 121 ID = 1543
  21.711471 1  587             Rx   d 8 60 12 30 02 00 00 00 00  Length = 463773 BitCount = 120 ID = 1415
  22.214971 1  607             Tx   d 8 40 12 30 02 00 00 00 00  Length = 479987 BitCount = 123 ID = 1543
  22.216611 1  587             Rx   d 8 4B 12 30 02 00 00 00 00  Length = 463773 BitCount = 120 ID = 1415
  22.219983 1  607             Tx   d 8 2B 12 30 02 DC 05 00 00  Length = 463987 BitCount = 119 ID = 1543
  22.221610 1  587             Rx   d 8 60 12 30 02 00 00 00 00  Length = 463773 BitCount = 120 ID = 1415
  22.383406 1  707             Rx   d 1 7F  Length = 215785 BitCount = 58 ID = 1799
  22.725090 1  607             Tx   d 8 40 12 30 02 00 00 00 00  Length = 479987 BitCount = 123 ID = 1543
  22.726738 1  587             Rx   d 8 4B 12 30 02 DC 05 00 00  Length = 451777 BitCount = 117 ID = 1415
  22.730094 1  607             Tx   d 8 2B 12 30 02 B8 0B 00 00  Length = 463987 BitCount = 119 ID = 1543
  22.731749 1  587             Rx   d 8 60 12 30 02 00 00 00 00  Length = 463773 BitCount = 120 ID = 1415
  23.234933 1  607             Tx   d 8 40 12 30 02 00 00 00 00  Length = 479987 BitCount = 123 ID = 1543
  23.236881 1  587             Rx   d 8 4B 12 30 02 B8 0B 00 00  Length = 455773 BitCount = 118 ID = 1415
  23.239929 1  607             Tx   d 8 2B 12 30 02 B9 0B 00 00  Length = 459987 BitCount = 118 ID = 1543
  23.241884 1  587             Rx   d 8 80 12 30 02 31 00 09 06  Length = 459773 BitCount = 119 ID = 1415
  23.242892 1  87              Rx   d 8 00 82 00 27 31 00 09 06  Length = 467773 BitCount = 121 ID = 135
  23.745168 1  607             Tx   d 8 40 12 30 02 00 00 00 00  Length = 479987 BitCount = 123 ID = 1543
  23.747019 1  587             Rx   d 8 4B 12 30 02 B8 0B 00 00  Length = 455773 BitCount = 118 ID = 1415
  23.752123 1  607             Tx   d 8 2B 12 30 03 47 F4 00 00  Length = 471987 BitCount = 121 ID = 1543
  23.754026 1  587             Rx   d 8 80 12 30 03 32 00 09 06  Length = 459773 BitCount = 119 ID = 1415
  23.755026 1  87              Rx   d 8 00 82 00 27 32 00 09 06  Length = 459773 BitCount = 119 ID = 135
  24.256938 1  607             Tx   d 8 40 12 30 03 00 00 00 00  Length = 471987 BitCount = 121 ID = 1543
  24.259161 1  587             Rx   d 8 4B 12 30 03 DE FE 00 00  Length = 459773 BitCount = 119 ID = 1415
  24.262949 1  607             Tx   d 8 2B 12 30 03 48 F4 00 00  Length = 459987 BitCount = 118 ID = 1543
  24.265172 1  587             Rx   d 8 60 12 30 03 00 00 00 00  Length = 467773 BitCount = 121 ID = 1415
  24.426961 1  707             Rx   d 1 7F  Length = 215785 BitCount = 58 ID = 1799
  24.769149 1  607             Tx   d 8 40 12 30 03 00 00 00 00  Length = 471987 BitCount = 121 ID = 1543
  24.771296 1  587             Rx   d 8 4B 12 30 03 48 F4 00 00  Length = 451777 BitCount = 117 ID = 1415
  24.775180 1  607             Tx   d 8 2B 12 30 03 24 FA 00 00  Length = 463987 BitCount = 119 ID = 1543
  24.777312 1  587             Rx   d 8 60 12 30 03 00 00 00 00  Length = 467773 BitCount = 121 ID = 1415
  25.280980 1  607             Tx   d 8 40 12 30 03 00 00 00 00  Length = 471987 BitCount = 121 ID = 1543
  25.907605 1  587             Rx   d 8 4B 12 30 03 24 FA 00 00  Length = 451777 BitCount = 117 ID = 1415
  25.911113 1  607             Tx   d 8 2B 12 30 03 00 00 00 00  Length = 471987 BitCount = 121 ID = 1543
  25.912621 1  587             Rx   d 8 60 12 30 03 00 00 00 00  Length = 467773 BitCount = 121 ID = 1415
  26.416129 1  607             Tx   d 8 40 12 30 03 00 00 00 00  Length = 471987 BitCount = 121 ID = 1543
  26.417756 1  587             Rx   d 8 4B 12 30 03 00 00 00 00  Length = 463773 BitCount = 120 ID = 1415
  26.421112 1  607             Tx   d 8 2B 12 30 03 DC 05 00 00  Length = 467987 BitCount = 120 ID = 1543
  26.422760 1  587             Rx   d 8 60 12 30 03 00 00 00 00  Length = 467773 BitCount = 121 ID = 1415
  26.584552 1  707             Rx   d 1 7F  Length = 215785 BitCount = 58 ID = 1799
  26.926240 1  607             Tx   d 8 40 12 30 03 00 00 00 00  Length = 471987 BitCount = 121 ID = 1543
  26.927887 1  587             Rx   d 8 4B 12 30 03 DC 05 00 00  Length = 455773 BitCount = 118 ID = 1415
  26.931251 1  607             Tx   d 8 2B 12 30 03 B8 0B 00 00  Length = 463987 BitCount = 119 ID = 1543
  26.932899 1  587             Rx   d 8 60 12 30 03 00 00 00 00  Length = 467773 BitCount = 121 ID = 1415
  27.435999 1  607             Tx   d 8 40 12 30 03 00 00 00 00  Length = 471987 BitCount = 121 ID = 1543
  27.438026 1  587             Rx   d 8 4B 12 30 03 B8 0B 00 00  Length = 455773 BitCount = 118 ID = 1415
  27.440966 1  607             Tx   d 8 2B 12 30 03 B9 0B 00 00  Length = 459987 BitCount = 118 ID = 1543
  27.443029 1  587             Rx   d 8 80 12 30 03 31 00 09 06  Length = 455773 BitCount = 118 ID = 1415
  27.444041 1  87              Rx   d 8 00 82 00 27 31 00 09 06  Length = 467773 BitCount = 121 ID = 135
  27.946277 1  607             Tx   d 8 40 12 30 03 00 00 00 00  Length = 471987 BitCount = 121 ID = 1543
  27.948164 1  587             Rx   d 8 4B 12 30 03 B8 0B 00 00  Length = 455773 BitCount = 118 ID = 1415
  28.585098 1  707             Rx   d 1 7F  Length = 215785 BitCount = 58 ID = 1799
  30.585642 1  707             Rx   d 1 7F  Length = 215785 BitCount = 58 ID = 1799
End TriggerBlock
